%!PS-Adobe-3.0 EPSF-3.0
%%Creator: (MATLAB, The Mathworks, Inc. Version 9.12.0.1956245 \(R2022a\) Update 2. Operating System: Windows 10)
%%Title: ./sim_controller_zoom.eps
%%CreationDate: 2022-06-27T16:03:30
%%Pages: (atend)
%%BoundingBox:    34     3   493   285
%%LanguageLevel: 3
%%EndComments
%%BeginProlog
%%BeginResource: procset (Apache XML Graphics Std ProcSet) 1.2 0
%%Version: 1.2 0
%%Copyright: (Copyright 2001-2003,2010 The Apache Software Foundation. License terms: http://www.apache.org/licenses/LICENSE-2.0)
/bd{bind def}bind def
/ld{load def}bd
/GR/grestore ld
/GS/gsave ld
/RM/rmoveto ld
/C/curveto ld
/t/show ld
/L/lineto ld
/ML/setmiterlimit ld
/CT/concat ld
/f/fill ld
/N/newpath ld
/S/stroke ld
/CC/setcmykcolor ld
/A/ashow ld
/cp/closepath ld
/RC/setrgbcolor ld
/LJ/setlinejoin ld
/GC/setgray ld
/LW/setlinewidth ld
/M/moveto ld
/re {4 2 roll M
1 index 0 rlineto
0 exch rlineto
neg 0 rlineto
cp } bd
/_ctm matrix def
/_tm matrix def
/BT { _ctm currentmatrix pop matrix _tm copy pop 0 0 moveto } bd
/ET { _ctm setmatrix } bd
/iTm { _ctm setmatrix _tm concat } bd
/Tm { _tm astore pop iTm 0 0 moveto } bd
/ux 0.0 def
/uy 0.0 def
/F {
  /Tp exch def
  /Tf exch def
  Tf findfont Tp scalefont setfont
  /cf Tf def  /cs Tp def
} bd
/ULS {currentpoint /uy exch def /ux exch def} bd
/ULE {
  /Tcx currentpoint pop def
  gsave
  newpath
  cf findfont cs scalefont dup
  /FontMatrix get 0 get /Ts exch def /FontInfo get dup
  /UnderlinePosition get Ts mul /To exch def
  /UnderlineThickness get Ts mul /Tt exch def
  ux uy To add moveto  Tcx uy To add lineto
  Tt setlinewidth stroke
  grestore
} bd
/OLE {
  /Tcx currentpoint pop def
  gsave
  newpath
  cf findfont cs scalefont dup
  /FontMatrix get 0 get /Ts exch def /FontInfo get dup
  /UnderlinePosition get Ts mul /To exch def
  /UnderlineThickness get Ts mul /Tt exch def
  ux uy To add cs add moveto Tcx uy To add cs add lineto
  Tt setlinewidth stroke
  grestore
} bd
/SOE {
  /Tcx currentpoint pop def
  gsave
  newpath
  cf findfont cs scalefont dup
  /FontMatrix get 0 get /Ts exch def /FontInfo get dup
  /UnderlinePosition get Ts mul /To exch def
  /UnderlineThickness get Ts mul /Tt exch def
  ux uy To add cs 10 mul 26 idiv add moveto Tcx uy To add cs 10 mul 26 idiv add lineto
  Tt setlinewidth stroke
  grestore
} bd
/QT {
/Y22 exch store
/X22 exch store
/Y21 exch store
/X21 exch store
currentpoint
/Y21 load 2 mul add 3 div exch
/X21 load 2 mul add 3 div exch
/X21 load 2 mul /X22 load add 3 div
/Y21 load 2 mul /Y22 load add 3 div
/X22 load /Y22 load curveto
} bd
/SSPD {
dup length /d exch dict def
{
/v exch def
/k exch def
currentpagedevice k known {
/cpdv currentpagedevice k get def
v cpdv ne {
/upd false def
/nullv v type /nulltype eq def
/nullcpdv cpdv type /nulltype eq def
nullv nullcpdv or
{
/upd true def
} {
/sametype v type cpdv type eq def
sametype {
v type /arraytype eq {
/vlen v length def
/cpdvlen cpdv length def
vlen cpdvlen eq {
0 1 vlen 1 sub {
/i exch def
/obj v i get def
/cpdobj cpdv i get def
obj cpdobj ne {
/upd true def
exit
} if
} for
} {
/upd true def
} ifelse
} {
v type /dicttype eq {
v {
/dv exch def
/dk exch def
/cpddv cpdv dk get def
dv cpddv ne {
/upd true def
exit
} if
} forall
} {
/upd true def
} ifelse
} ifelse
} if
} ifelse
upd true eq {
d k v put
} if
} if
} if
} forall
d length 0 gt {
d setpagedevice
} if
} bd
/RE { % /NewFontName [NewEncodingArray] /FontName RE -
  findfont dup length dict begin
  {
    1 index /FID ne
    {def} {pop pop} ifelse
  } forall
  /Encoding exch def
  /FontName 1 index def
  currentdict definefont pop
  end
} bind def
%%EndResource
%%BeginResource: procset (Apache XML Graphics EPS ProcSet) 1.0 0
%%Version: 1.0 0
%%Copyright: (Copyright 2002-2003 The Apache Software Foundation. License terms: http://www.apache.org/licenses/LICENSE-2.0)
/BeginEPSF { %def
/b4_Inc_state save def         % Save state for cleanup
/dict_count countdictstack def % Count objects on dict stack
/op_count count 1 sub def      % Count objects on operand stack
userdict begin                 % Push userdict on dict stack
/showpage { } def              % Redefine showpage, { } = null proc
0 setgray 0 setlinecap         % Prepare graphics state
1 setlinewidth 0 setlinejoin
10 setmiterlimit [ ] 0 setdash newpath
/languagelevel where           % If level not equal to 1 then
{pop languagelevel             % set strokeadjust and
1 ne                           % overprint to their defaults.
{false setstrokeadjust false setoverprint
} if
} if
} bd
/EndEPSF { %def
count op_count sub {pop} repeat            % Clean up stacks
countdictstack dict_count sub {end} repeat
b4_Inc_state restore
} bd
%%EndResource
%FOPBeginFontDict
%%IncludeResource: font Courier-Oblique
%%IncludeResource: font Courier-BoldOblique
%%IncludeResource: font Courier-Bold
%%IncludeResource: font ZapfDingbats
%%IncludeResource: font Symbol
%%IncludeResource: font Helvetica
%%IncludeResource: font Helvetica-Oblique
%%IncludeResource: font Helvetica-Bold
%%IncludeResource: font Helvetica-BoldOblique
%%IncludeResource: font Times-Roman
%%IncludeResource: font Times-Italic
%%IncludeResource: font Times-Bold
%%IncludeResource: font Times-BoldItalic
%%IncludeResource: font Courier
%FOPEndFontDict
%%BeginResource: encoding WinAnsiEncoding
/WinAnsiEncoding [
/.notdef /.notdef /.notdef /.notdef /.notdef
/.notdef /.notdef /.notdef /.notdef /.notdef
/.notdef /.notdef /.notdef /.notdef /.notdef
/.notdef /.notdef /.notdef /.notdef /.notdef
/.notdef /.notdef /.notdef /.notdef /.notdef
/.notdef /.notdef /.notdef /.notdef /.notdef
/.notdef /.notdef /space /exclam /quotedbl
/numbersign /dollar /percent /ampersand /quotesingle
/parenleft /parenright /asterisk /plus /comma
/hyphen /period /slash /zero /one
/two /three /four /five /six
/seven /eight /nine /colon /semicolon
/less /equal /greater /question /at
/A /B /C /D /E
/F /G /H /I /J
/K /L /M /N /O
/P /Q /R /S /T
/U /V /W /X /Y
/Z /bracketleft /backslash /bracketright /asciicircum
/underscore /quoteleft /a /b /c
/d /e /f /g /h
/i /j /k /l /m
/n /o /p /q /r
/s /t /u /v /w
/x /y /z /braceleft /bar
/braceright /asciitilde /bullet /Euro /bullet
/quotesinglbase /florin /quotedblbase /ellipsis /dagger
/daggerdbl /circumflex /perthousand /Scaron /guilsinglleft
/OE /bullet /Zcaron /bullet /bullet
/quoteleft /quoteright /quotedblleft /quotedblright /bullet
/endash /emdash /asciitilde /trademark /scaron
/guilsinglright /oe /bullet /zcaron /Ydieresis
/space /exclamdown /cent /sterling /currency
/yen /brokenbar /section /dieresis /copyright
/ordfeminine /guillemotleft /logicalnot /sfthyphen /registered
/macron /degree /plusminus /twosuperior /threesuperior
/acute /mu /paragraph /middot /cedilla
/onesuperior /ordmasculine /guillemotright /onequarter /onehalf
/threequarters /questiondown /Agrave /Aacute /Acircumflex
/Atilde /Adieresis /Aring /AE /Ccedilla
/Egrave /Eacute /Ecircumflex /Edieresis /Igrave
/Iacute /Icircumflex /Idieresis /Eth /Ntilde
/Ograve /Oacute /Ocircumflex /Otilde /Odieresis
/multiply /Oslash /Ugrave /Uacute /Ucircumflex
/Udieresis /Yacute /Thorn /germandbls /agrave
/aacute /acircumflex /atilde /adieresis /aring
/ae /ccedilla /egrave /eacute /ecircumflex
/edieresis /igrave /iacute /icircumflex /idieresis
/eth /ntilde /ograve /oacute /ocircumflex
/otilde /odieresis /divide /oslash /ugrave
/uacute /ucircumflex /udieresis /yacute /thorn
/ydieresis
] def
%%EndResource
%FOPBeginFontReencode
/Courier-Oblique findfont
dup length dict begin
  {1 index /FID ne {def} {pop pop} ifelse} forall
  /Encoding WinAnsiEncoding def
  currentdict
end
/Courier-Oblique exch definefont pop
/Courier-BoldOblique findfont
dup length dict begin
  {1 index /FID ne {def} {pop pop} ifelse} forall
  /Encoding WinAnsiEncoding def
  currentdict
end
/Courier-BoldOblique exch definefont pop
/Courier-Bold findfont
dup length dict begin
  {1 index /FID ne {def} {pop pop} ifelse} forall
  /Encoding WinAnsiEncoding def
  currentdict
end
/Courier-Bold exch definefont pop
/Helvetica findfont
dup length dict begin
  {1 index /FID ne {def} {pop pop} ifelse} forall
  /Encoding WinAnsiEncoding def
  currentdict
end
/Helvetica exch definefont pop
/Helvetica-Oblique findfont
dup length dict begin
  {1 index /FID ne {def} {pop pop} ifelse} forall
  /Encoding WinAnsiEncoding def
  currentdict
end
/Helvetica-Oblique exch definefont pop
/Helvetica-Bold findfont
dup length dict begin
  {1 index /FID ne {def} {pop pop} ifelse} forall
  /Encoding WinAnsiEncoding def
  currentdict
end
/Helvetica-Bold exch definefont pop
/Helvetica-BoldOblique findfont
dup length dict begin
  {1 index /FID ne {def} {pop pop} ifelse} forall
  /Encoding WinAnsiEncoding def
  currentdict
end
/Helvetica-BoldOblique exch definefont pop
/Times-Roman findfont
dup length dict begin
  {1 index /FID ne {def} {pop pop} ifelse} forall
  /Encoding WinAnsiEncoding def
  currentdict
end
/Times-Roman exch definefont pop
/Times-Italic findfont
dup length dict begin
  {1 index /FID ne {def} {pop pop} ifelse} forall
  /Encoding WinAnsiEncoding def
  currentdict
end
/Times-Italic exch definefont pop
/Times-Bold findfont
dup length dict begin
  {1 index /FID ne {def} {pop pop} ifelse} forall
  /Encoding WinAnsiEncoding def
  currentdict
end
/Times-Bold exch definefont pop
/Times-BoldItalic findfont
dup length dict begin
  {1 index /FID ne {def} {pop pop} ifelse} forall
  /Encoding WinAnsiEncoding def
  currentdict
end
/Times-BoldItalic exch definefont pop
/Courier findfont
dup length dict begin
  {1 index /FID ne {def} {pop pop} ifelse} forall
  /Encoding WinAnsiEncoding def
  currentdict
end
/Courier exch definefont pop
%FOPEndFontReencode
%%EndProlog
%%Page: 1 1
%%PageBoundingBox: 0 0 537 293
%%BeginPageSetup
N
   34     3 M
  527     3 L
  527   288 L
   34   288 L
cp
clip
[1 0 0 -1 0 293] CT
%%EndPageSetup
GS
[0.75 0 0 0.75 0 -0.25] CT
1 GC
N
0 0 716 391 re
f
GR
GS
[0.75 0 0 0.75 0 -0.25] CT
1 GC
N
93 348 M
648 348 L
648 29 L
93 29 L
cp
f
GR
GS
[0.75 0 0 0.75 0 -0.25] CT
0.873 GC
1 LJ
0.667 LW
N
93 348 M
93 29 L
S
GR
GS
[0.75 0 0 0.75 0 -0.25] CT
0.873 GC
1 LJ
0.667 LW
N
148.5 348 M
148.5 29 L
S
GR
GS
[0.75 0 0 0.75 0 -0.25] CT
0.873 GC
1 LJ
0.667 LW
N
204 348 M
204 29 L
S
GR
GS
[0.75 0 0 0.75 0 -0.25] CT
0.873 GC
1 LJ
0.667 LW
N
259.5 348 M
259.5 29 L
S
GR
GS
[0.75 0 0 0.75 0 -0.25] CT
0.873 GC
1 LJ
0.667 LW
N
315 348 M
315 29 L
S
GR
GS
[0.75 0 0 0.75 0 -0.25] CT
0.873 GC
1 LJ
0.667 LW
N
370.5 348 M
370.5 29 L
S
GR
GS
[0.75 0 0 0.75 0 -0.25] CT
0.873 GC
1 LJ
0.667 LW
N
426 348 M
426 29 L
S
GR
GS
[0.75 0 0 0.75 0 -0.25] CT
0.873 GC
1 LJ
0.667 LW
N
481.5 348 M
481.5 29 L
S
GR
GS
[0.75 0 0 0.75 0 -0.25] CT
0.873 GC
1 LJ
0.667 LW
N
537 348 M
537 29 L
S
GR
GS
[0.75 0 0 0.75 0 -0.25] CT
0.873 GC
1 LJ
0.667 LW
N
592.5 348 M
592.5 29 L
S
GR
GS
[0.75 0 0 0.75 0 -0.25] CT
0.873 GC
1 LJ
0.667 LW
N
648 348 M
648 29 L
S
GR
GS
[0.75 0 0 0.75 0 -0.25] CT
0.873 GC
1 LJ
0.667 LW
N
648 348 M
93 348 L
S
GR
GS
[0.75 0 0 0.75 0 -0.25] CT
0.873 GC
1 LJ
0.667 LW
N
648 302.429 M
93 302.429 L
S
GR
GS
[0.75 0 0 0.75 0 -0.25] CT
0.873 GC
1 LJ
0.667 LW
N
648 256.857 M
93 256.857 L
S
GR
GS
[0.75 0 0 0.75 0 -0.25] CT
0.873 GC
1 LJ
0.667 LW
N
648 211.286 M
93 211.286 L
S
GR
GS
[0.75 0 0 0.75 0 -0.25] CT
0.873 GC
1 LJ
0.667 LW
N
648 165.714 M
93 165.714 L
S
GR
GS
[0.75 0 0 0.75 0 -0.25] CT
0.873 GC
1 LJ
0.667 LW
N
648 120.143 M
93 120.143 L
S
GR
GS
[0.75 0 0 0.75 0 -0.25] CT
0.873 GC
1 LJ
0.667 LW
N
648 74.571 M
93 74.571 L
S
GR
GS
[0.75 0 0 0.75 0 -0.25] CT
0.873 GC
1 LJ
0.667 LW
N
648 29 M
93 29 L
S
GR
GS
[0.75 0 0 0.75 0 -0.25] CT
0.149 GC
2 setlinecap
1 LJ
0.667 LW
N
93 348 M
648 348 L
S
GR
GS
[0.75 0 0 0.75 0 -0.25] CT
0.149 GC
2 setlinecap
1 LJ
0.667 LW
N
93 29 M
648 29 L
S
GR
GS
[0.75 0 0 0.75 0 -0.25] CT
0.149 GC
2 setlinecap
1 LJ
0.667 LW
N
93 348 M
93 342.45 L
S
GR
GS
[0.75 0 0 0.75 0 -0.25] CT
0.149 GC
2 setlinecap
1 LJ
0.667 LW
N
148.5 348 M
148.5 342.45 L
S
GR
GS
[0.75 0 0 0.75 0 -0.25] CT
0.149 GC
2 setlinecap
1 LJ
0.667 LW
N
204 348 M
204 342.45 L
S
GR
GS
[0.75 0 0 0.75 0 -0.25] CT
0.149 GC
2 setlinecap
1 LJ
0.667 LW
N
259.5 348 M
259.5 342.45 L
S
GR
GS
[0.75 0 0 0.75 0 -0.25] CT
0.149 GC
2 setlinecap
1 LJ
0.667 LW
N
315 348 M
315 342.45 L
S
GR
GS
[0.75 0 0 0.75 0 -0.25] CT
0.149 GC
2 setlinecap
1 LJ
0.667 LW
N
370.5 348 M
370.5 342.45 L
S
GR
GS
[0.75 0 0 0.75 0 -0.25] CT
0.149 GC
2 setlinecap
1 LJ
0.667 LW
N
426 348 M
426 342.45 L
S
GR
GS
[0.75 0 0 0.75 0 -0.25] CT
0.149 GC
2 setlinecap
1 LJ
0.667 LW
N
481.5 348 M
481.5 342.45 L
S
GR
GS
[0.75 0 0 0.75 0 -0.25] CT
0.149 GC
2 setlinecap
1 LJ
0.667 LW
N
537 348 M
537 342.45 L
S
GR
GS
[0.75 0 0 0.75 0 -0.25] CT
0.149 GC
2 setlinecap
1 LJ
0.667 LW
N
592.5 348 M
592.5 342.45 L
S
GR
GS
[0.75 0 0 0.75 0 -0.25] CT
0.149 GC
2 setlinecap
1 LJ
0.667 LW
N
648 348 M
648 342.45 L
S
GR
GS
[0.75 0 0 0.75 0 -0.25] CT
0.149 GC
2 setlinecap
1 LJ
0.667 LW
N
93 29 M
93 34.55 L
S
GR
GS
[0.75 0 0 0.75 0 -0.25] CT
0.149 GC
2 setlinecap
1 LJ
0.667 LW
N
148.5 29 M
148.5 34.55 L
S
GR
GS
[0.75 0 0 0.75 0 -0.25] CT
0.149 GC
2 setlinecap
1 LJ
0.667 LW
N
204 29 M
204 34.55 L
S
GR
GS
[0.75 0 0 0.75 0 -0.25] CT
0.149 GC
2 setlinecap
1 LJ
0.667 LW
N
259.5 29 M
259.5 34.55 L
S
GR
GS
[0.75 0 0 0.75 0 -0.25] CT
0.149 GC
2 setlinecap
1 LJ
0.667 LW
N
315 29 M
315 34.55 L
S
GR
GS
[0.75 0 0 0.75 0 -0.25] CT
0.149 GC
2 setlinecap
1 LJ
0.667 LW
N
370.5 29 M
370.5 34.55 L
S
GR
GS
[0.75 0 0 0.75 0 -0.25] CT
0.149 GC
2 setlinecap
1 LJ
0.667 LW
N
426 29 M
426 34.55 L
S
GR
GS
[0.75 0 0 0.75 0 -0.25] CT
0.149 GC
2 setlinecap
1 LJ
0.667 LW
N
481.5 29 M
481.5 34.55 L
S
GR
GS
[0.75 0 0 0.75 0 -0.25] CT
0.149 GC
2 setlinecap
1 LJ
0.667 LW
N
537 29 M
537 34.55 L
S
GR
GS
[0.75 0 0 0.75 0 -0.25] CT
0.149 GC
2 setlinecap
1 LJ
0.667 LW
N
592.5 29 M
592.5 34.55 L
S
GR
GS
[0.75 0 0 0.75 0 -0.25] CT
0.149 GC
2 setlinecap
1 LJ
0.667 LW
N
648 29 M
648 34.55 L
S
GR
GS
[0.75 0 0 0.75 69.75 264.74998] CT
0.149 GC
/Helvetica 13.333 F
GS
[1 0 0 1 0 0] CT
-4 14 moveto 
1 -1 scale
(0) t 
GR
GR
GS
[0.75 0 0 0.75 111.375 264.74998] CT
0.149 GC
/Helvetica 13.333 F
GS
[1 0 0 1 0 0] CT
-7.5 14 moveto 
1 -1 scale
(50) t 
GR
GR
GS
[0.75 0 0 0.75 153 264.74998] CT
0.149 GC
/Helvetica 13.333 F
GS
[1 0 0 1 0 0] CT
-11.5 14 moveto 
1 -1 scale
(100) t 
GR
GR
GS
[0.75 0 0 0.75 194.625 264.74998] CT
0.149 GC
/Helvetica 13.333 F
GS
[1 0 0 1 0 0] CT
-11.5 14 moveto 
1 -1 scale
(150) t 
GR
GR
GS
[0.75 0 0 0.75 236.25 264.74998] CT
0.149 GC
/Helvetica 13.333 F
GS
[1 0 0 1 0 0] CT
-11.5 14 moveto 
1 -1 scale
(200) t 
GR
GR
GS
[0.75 0 0 0.75 277.875 264.74998] CT
0.149 GC
/Helvetica 13.333 F
GS
[1 0 0 1 0 0] CT
-11.5 14 moveto 
1 -1 scale
(250) t 
GR
GR
GS
[0.75 0 0 0.75 319.5 264.74998] CT
0.149 GC
/Helvetica 13.333 F
GS
[1 0 0 1 0 0] CT
-11.5 14 moveto 
1 -1 scale
(300) t 
GR
GR
GS
[0.75 0 0 0.75 361.125 264.74998] CT
0.149 GC
/Helvetica 13.333 F
GS
[1 0 0 1 0 0] CT
-11.5 14 moveto 
1 -1 scale
(350) t 
GR
GR
GS
[0.75 0 0 0.75 402.75 264.74998] CT
0.149 GC
/Helvetica 13.333 F
GS
[1 0 0 1 0 0] CT
-11.5 14 moveto 
1 -1 scale
(400) t 
GR
GR
GS
[0.75 0 0 0.75 444.375 264.74998] CT
0.149 GC
/Helvetica 13.333 F
GS
[1 0 0 1 0 0] CT
-11.5 14 moveto 
1 -1 scale
(450) t 
GR
GR
GS
[0.75 0 0 0.75 486 264.74998] CT
0.149 GC
/Helvetica 13.333 F
GS
[1 0 0 1 0 0] CT
-11.5 14 moveto 
1 -1 scale
(500) t 
GR
GR
GS
[0.75 0 0 0.75 277.87521 278.50002] CT
0.149 GC
/Helvetica 14.667 F
GS
[1 0 0 1 0 0] CT
-12 15 moveto 
1 -1 scale
(t / s) t 
GR
GR
GS
[0.75 0 0 0.75 0 -0.25] CT
0.149 GC
2 setlinecap
1 LJ
0.667 LW
N
93 348 M
93 29 L
S
GR
GS
[0.75 0 0 0.75 0 -0.25] CT
0.149 GC
2 setlinecap
1 LJ
0.667 LW
N
648 348 M
648 29 L
S
GR
GS
[0.75 0 0 0.75 0 -0.25] CT
0.149 GC
2 setlinecap
1 LJ
0.667 LW
N
93 348 M
98.55 348 L
S
GR
GS
[0.75 0 0 0.75 0 -0.25] CT
0.149 GC
2 setlinecap
1 LJ
0.667 LW
N
93 302.429 M
98.55 302.429 L
S
GR
GS
[0.75 0 0 0.75 0 -0.25] CT
0.149 GC
2 setlinecap
1 LJ
0.667 LW
N
93 256.857 M
98.55 256.857 L
S
GR
GS
[0.75 0 0 0.75 0 -0.25] CT
0.149 GC
2 setlinecap
1 LJ
0.667 LW
N
93 211.286 M
98.55 211.286 L
S
GR
GS
[0.75 0 0 0.75 0 -0.25] CT
0.149 GC
2 setlinecap
1 LJ
0.667 LW
N
93 165.714 M
98.55 165.714 L
S
GR
GS
[0.75 0 0 0.75 0 -0.25] CT
0.149 GC
2 setlinecap
1 LJ
0.667 LW
N
93 120.143 M
98.55 120.143 L
S
GR
GS
[0.75 0 0 0.75 0 -0.25] CT
0.149 GC
2 setlinecap
1 LJ
0.667 LW
N
93 74.571 M
98.55 74.571 L
S
GR
GS
[0.75 0 0 0.75 0 -0.25] CT
0.149 GC
2 setlinecap
1 LJ
0.667 LW
N
93 29 M
98.55 29 L
S
GR
GS
[0.75 0 0 0.75 0 -0.25] CT
0.149 GC
2 setlinecap
1 LJ
0.667 LW
N
648 348 M
642.45 348 L
S
GR
GS
[0.75 0 0 0.75 0 -0.25] CT
0.149 GC
2 setlinecap
1 LJ
0.667 LW
N
648 302.429 M
642.45 302.429 L
S
GR
GS
[0.75 0 0 0.75 0 -0.25] CT
0.149 GC
2 setlinecap
1 LJ
0.667 LW
N
648 256.857 M
642.45 256.857 L
S
GR
GS
[0.75 0 0 0.75 0 -0.25] CT
0.149 GC
2 setlinecap
1 LJ
0.667 LW
N
648 211.286 M
642.45 211.286 L
S
GR
GS
[0.75 0 0 0.75 0 -0.25] CT
0.149 GC
2 setlinecap
1 LJ
0.667 LW
N
648 165.714 M
642.45 165.714 L
S
GR
GS
[0.75 0 0 0.75 0 -0.25] CT
0.149 GC
2 setlinecap
1 LJ
0.667 LW
N
648 120.143 M
642.45 120.143 L
S
GR
GS
[0.75 0 0 0.75 0 -0.25] CT
0.149 GC
2 setlinecap
1 LJ
0.667 LW
N
648 74.571 M
642.45 74.571 L
S
GR
GS
[0.75 0 0 0.75 0 -0.25] CT
0.149 GC
2 setlinecap
1 LJ
0.667 LW
N
648 29 M
642.45 29 L
S
GR
GS
[0.75 0 0 0.75 65.75 260.75] CT
0.149 GC
/Helvetica 13.333 F
GS
[1 0 0 1 0 0] CT
-15 5.5 moveto 
1 -1 scale
(70) t 
GR
GR
GS
[0.75 0 0 0.75 65.75 226.57142] CT
0.149 GC
/Helvetica 13.333 F
GS
[1 0 0 1 0 0] CT
-15 5.5 moveto 
1 -1 scale
(75) t 
GR
GR
GS
[0.75 0 0 0.75 65.75 192.39286] CT
0.149 GC
/Helvetica 13.333 F
GS
[1 0 0 1 0 0] CT
-15 5.5 moveto 
1 -1 scale
(80) t 
GR
GR
GS
[0.75 0 0 0.75 65.75 158.21429] CT
0.149 GC
/Helvetica 13.333 F
GS
[1 0 0 1 0 0] CT
-15 5.5 moveto 
1 -1 scale
(85) t 
GR
GR
GS
[0.75 0 0 0.75 65.75 124.03571] CT
0.149 GC
/Helvetica 13.333 F
GS
[1 0 0 1 0 0] CT
-15 5.5 moveto 
1 -1 scale
(90) t 
GR
GR
GS
[0.75 0 0 0.75 65.75 89.85715] CT
0.149 GC
/Helvetica 13.333 F
GS
[1 0 0 1 0 0] CT
-15 5.5 moveto 
1 -1 scale
(95) t 
GR
GR
GS
[0.75 0 0 0.75 65.75 55.67857] CT
0.149 GC
/Helvetica 13.333 F
GS
[1 0 0 1 0 0] CT
-23 5.5 moveto 
1 -1 scale
(100) t 
GR
GR
GS
[0.75 0 0 0.75 65.75 21.5] CT
0.149 GC
/Helvetica 13.333 F
GS
[1 0 0 1 0 0] CT
-23 5.5 moveto 
1 -1 scale
(105) t 
GR
GR
GS
[0 -0.75 0.75 0 45.5 141.1249] CT
0.149 GC
/Helvetica 14.667 F
GS
[1 0 0 1 0 0] CT
-19 -4 moveto 
1 -1 scale
(T / \260C) t 
GR
GR
GS
[0.75 0 0 0.75 277.87527 19.43748] CT
/Helvetica-Bold 14.667 F
GS
[1 0 0 1 0 0] CT
-48.5 -4 moveto 
1 -1 scale
(Temperatures) t 
GR
GR
GS
[0.75 0 0 0.75 0 -0.25] CT
0 0.447 0.741 RC
1 LJ
0.667 LW
N
99.273 348.038 M
99.371 342.998 L
99.66 328.294 L
99.949 313.886 L
100.215 300.914 L
100.481 288.18 L
100.77 274.578 L
101.059 261.247 L
101.325 249.24 L
101.591 237.452 L
101.88 224.857 L
102.169 212.509 L
102.435 201.385 L
102.701 190.461 L
102.99 178.786 L
103.279 167.337 L
103.545 157.021 L
103.811 146.886 L
104.1 136.052 L
104.389 125.425 L
104.655 115.846 L
104.921 106.434 L
105.21 96.369 L
105.499 86.493 L
105.765 77.589 L
106.031 68.837 L
106.32 59.476 L
106.609 50.288 L
106.875 42 L
107.141 33.853 L
107.303 28.962 L
S
GR
GS
[0.75 0 0 0.75 0 -0.25] CT
0.851 0.325 0.098 RC
1 LJ
0.667 LW
N
178.602 348.038 M
178.759 347.266 L
179.025 345.964 L
179.291 344.663 L
179.58 343.247 L
179.869 341.832 L
180.135 340.533 L
180.401 339.235 L
180.69 337.822 L
180.979 336.41 L
181.245 335.113 L
181.511 333.818 L
181.8 332.408 L
182.089 330.998 L
182.355 329.704 L
182.621 328.411 L
182.91 327.004 L
183.199 325.597 L
183.465 324.306 L
183.731 323.015 L
184.02 321.61 L
184.309 320.206 L
184.575 318.918 L
184.841 317.63 L
185.13 316.228 L
185.419 314.827 L
185.685 313.54 L
185.951 312.255 L
186.24 310.856 L
186.529 309.457 L
186.795 308.174 L
187.061 306.891 L
187.35 305.494 L
187.639 304.098 L
187.905 302.817 L
188.171 301.537 L
188.46 300.143 L
188.749 298.75 L
189.015 297.471 L
189.281 296.193 L
189.57 294.802 L
189.859 293.411 L
190.125 292.135 L
190.391 290.86 L
190.68 289.471 L
190.969 288.083 L
191.235 286.81 L
191.501 285.537 L
191.79 284.151 L
192.079 282.765 L
192.345 281.494 L
192.611 280.224 L
192.9 278.84 L
193.189 277.458 L
193.455 276.189 L
193.721 274.921 L
194.01 273.54 L
194.299 272.16 L
194.565 270.894 L
194.831 269.628 L
195.12 268.25 L
195.409 266.872 L
195.675 265.608 L
195.941 264.345 L
196.23 262.969 L
196.519 261.595 L
196.785 260.333 L
197.051 259.072 L
197.34 257.699 L
197.629 256.327 L
197.895 255.068 L
198.161 253.809 L
198.45 252.439 L
198.739 251.069 L
199.005 249.812 L
199.271 248.556 L
199.56 247.188 L
199.849 245.821 L
200.115 244.566 L
200.381 243.312 L
200.67 241.947 L
200.959 240.582 L
201.225 239.33 L
201.491 238.078 L
201.78 236.716 L
202.069 235.354 L
202.335 234.104 L
202.601 232.854 L
202.89 231.494 L
203.179 230.135 L
203.445 228.887 L
203.711 227.64 L
204 226.282 L
204.289 224.925 L
204.555 223.68 L
204.821 222.435 L
205.11 221.08 L
205.399 219.725 L
205.665 218.482 L
205.931 217.24 L
206.22 215.887 L
206.509 214.535 L
206.775 213.294 L
207.041 212.054 L
207.33 210.703 L
207.619 209.354 L
207.885 208.115 L
208.151 206.877 L
208.44 205.529 L
208.729 204.182 L
208.995 202.946 L
209.261 201.71 L
209.55 200.365 L
209.839 199.02 L
210.105 197.786 L
210.371 196.553 L
210.66 195.21 L
210.949 193.868 L
211.215 192.636 L
211.481 191.404 L
211.77 190.064 L
212.059 188.724 L
212.325 187.494 L
212.591 186.265 L
212.88 184.927 L
213.169 183.59 L
213.435 182.362 L
213.701 181.135 L
213.99 179.8 L
214.279 178.465 L
214.545 177.24 L
214.811 176.015 L
215.1 174.682 L
215.389 173.349 L
215.655 172.126 L
215.921 170.903 L
216.21 169.573 L
216.499 168.242 L
216.765 167.021 L
217.031 165.801 L
217.32 164.473 L
217.609 163.145 L
217.875 161.926 L
218.141 160.708 L
218.43 159.382 L
218.719 158.056 L
218.985 156.84 L
219.251 155.624 L
219.54 154.3 L
219.829 152.977 L
220.095 151.762 L
220.361 150.548 L
220.65 149.227 L
220.939 147.906 L
221.205 146.694 L
221.471 145.482 L
221.76 144.163 L
222.049 142.845 L
222.315 141.635 L
222.581 140.425 L
222.87 139.108 L
223.159 137.792 L
223.425 136.584 L
223.691 135.377 L
223.98 134.062 L
224.269 132.748 L
224.535 131.542 L
224.801 130.337 L
225.09 129.025 L
225.379 127.713 L
225.645 126.51 L
225.911 125.306 L
226.2 123.996 L
226.489 122.687 L
226.755 121.486 L
227.021 120.285 L
227.31 118.977 L
227.599 117.67 L
227.865 116.47 L
228.131 115.271 L
228.42 113.966 L
228.709 112.661 L
228.975 111.464 L
229.241 110.267 L
229.53 108.964 L
229.819 107.661 L
230.085 106.466 L
230.351 105.271 L
230.64 103.97 L
230.929 102.67 L
231.195 101.477 L
231.461 100.284 L
231.75 98.986 L
232.039 97.688 L
232.305 96.496 L
232.571 95.306 L
232.86 94.009 L
233.149 92.714 L
233.415 91.524 L
233.681 90.336 L
233.97 89.042 L
234.259 87.748 L
234.525 86.561 L
234.791 85.374 L
235.08 84.083 L
235.369 82.791 L
235.635 81.606 L
235.901 80.422 L
236.19 79.132 L
236.479 77.888 L
236.745 76.789 L
237.011 75.734 L
237.3 74.633 L
237.589 73.58 L
237.855 72.652 L
238.121 71.764 L
238.41 70.839 L
238.699 69.956 L
238.965 69.181 L
239.231 68.44 L
239.52 67.672 L
239.809 66.941 L
240.075 66.301 L
240.341 65.691 L
240.63 65.06 L
240.919 64.463 L
241.185 63.942 L
241.451 63.448 L
241.74 62.94 L
242.029 62.462 L
242.295 62.047 L
242.561 61.655 L
242.85 61.256 L
243.139 60.882 L
243.405 60.56 L
243.671 60.259 L
243.96 59.955 L
244.249 59.674 L
244.515 59.435 L
244.781 59.214 L
245.07 58.994 L
245.359 58.794 L
245.625 58.628 L
245.891 58.478 L
246.18 58.332 L
246.469 58.204 L
246.735 58.102 L
247.001 58.014 L
247.29 57.934 L
247.579 57.869 L
247.845 57.823 L
248.111 57.79 L
248.4 57.767 L
248.689 57.714 L
248.955 57.633 L
249.221 57.558 L
249.51 57.491 L
249.799 57.439 L
250.065 57.403 L
250.331 57.38 L
250.62 57.368 L
250.909 57.369 L
251.175 57.381 L
251.441 57.366 L
251.73 57.311 L
252.019 57.262 L
252.285 57.228 L
252.551 57.206 L
252.84 57.196 L
253.129 57.198 L
253.395 57.211 L
253.661 57.196 L
253.95 57.142 L
254.239 57.093 L
254.505 57.059 L
254.771 57.037 L
255.06 57.026 L
255.349 57.027 L
255.615 57.039 L
255.881 57.062 L
256.17 57.097 L
256.459 57.1 L
256.725 57.068 L
256.991 57.039 L
257.28 57.021 L
257.569 57.016 L
257.835 57.021 L
258.101 57.037 L
258.39 57.065 L
258.679 57.105 L
258.945 57.151 L
259.211 57.168 L
259.5 57.147 L
259.789 57.129 L
260.055 57.123 L
260.321 57.127 L
260.61 57.144 L
260.899 57.172 L
261.165 57.207 L
261.431 57.213 L
261.72 57.18 L
262.009 57.151 L
262.275 57.135 L
262.541 57.13 L
262.83 57.136 L
263.119 57.153 L
263.385 57.179 L
263.651 57.214 L
263.94 57.262 L
264.229 57.276 L
264.495 57.255 L
264.761 57.235 L
265.05 57.226 L
265.339 57.229 L
265.605 57.242 L
265.871 57.264 L
266.16 57.298 L
266.449 57.344 L
266.715 57.394 L
266.981 57.415 L
267.27 57.397 L
267.559 57.382 L
267.825 57.379 L
268.091 57.385 L
268.38 57.403 L
268.669 57.431 L
268.935 57.467 L
269.201 57.511 L
269.49 57.569 L
269.779 57.592 L
270.045 57.578 L
270.311 57.566 L
270.6 57.564 L
270.889 57.574 L
271.155 57.592 L
271.421 57.619 L
271.71 57.659 L
271.999 57.709 L
272.265 57.764 L
272.531 57.789 L
272.82 57.774 L
273.109 57.763 L
273.375 57.762 L
273.641 57.77 L
273.93 57.79 L
274.219 57.821 L
274.485 57.858 L
274.751 57.865 L
275.04 57.833 L
275.329 57.804 L
275.595 57.787 L
275.861 57.78 L
276.15 57.784 L
276.439 57.798 L
276.705 57.821 L
276.971 57.852 L
277.26 57.896 L
277.549 57.906 L
277.815 57.879 L
278.081 57.854 L
278.37 57.839 L
278.659 57.835 L
278.925 57.841 L
279.191 57.856 L
279.48 57.883 L
279.769 57.92 L
280.035 57.963 L
280.301 57.976 L
280.59 57.949 L
280.879 57.925 L
281.145 57.912 L
281.411 57.909 L
281.7 57.917 L
281.989 57.935 L
282.255 57.961 L
282.521 57.995 L
282.81 58.042 L
283.099 58.099 L
283.365 58.158 L
283.631 58.188 L
283.92 58.178 L
284.209 58.17 L
284.475 58.173 L
284.741 58.184 L
285.03 58.207 L
285.319 58.239 L
285.585 58.278 L
285.851 58.287 L
286.14 58.255 L
286.429 58.226 L
286.695 58.21 L
286.961 58.202 L
287.25 58.205 L
287.539 58.219 L
287.805 58.241 L
288.071 58.271 L
288.36 58.313 L
288.649 58.364 L
288.915 58.42 L
289.181 58.445 L
289.47 58.431 L
289.759 58.418 L
290.025 58.416 L
290.291 58.423 L
290.58 58.441 L
290.869 58.469 L
291.135 58.503 L
291.401 58.545 L
291.69 58.6 L
291.979 58.619 L
292.245 58.601 L
292.511 58.584 L
292.8 58.577 L
293.089 58.58 L
293.355 58.593 L
293.621 58.613 L
293.91 58.646 L
294.199 58.688 L
294.465 58.734 L
294.731 58.751 L
295.02 58.727 L
295.309 58.706 L
295.575 58.696 L
295.841 58.694 L
296.13 58.704 L
296.419 58.723 L
296.685 58.749 L
296.951 58.784 L
297.24 58.831 L
297.529 58.842 L
297.795 58.816 L
298.061 58.793 L
298.35 58.778 L
298.639 58.774 L
298.905 58.779 L
299.171 58.793 L
299.46 58.818 L
299.749 58.853 L
300.015 58.893 L
300.281 58.903 L
300.57 58.873 L
300.859 58.844 L
301.125 58.828 L
301.391 58.82 L
301.68 58.823 L
301.969 58.836 L
302.235 58.856 L
302.501 58.885 L
302.79 58.926 L
303.079 58.976 L
303.345 59.029 L
303.611 59.052 L
303.9 59.035 L
304.189 59.019 L
304.455 59.014 L
304.721 59.018 L
305.01 59.032 L
305.299 59.056 L
305.565 59.087 L
305.831 59.125 L
306.12 59.176 L
306.409 59.191 L
306.675 59.168 L
306.941 59.147 L
307.23 59.135 L
307.519 59.133 L
307.785 59.141 L
308.051 59.157 L
308.34 59.184 L
308.629 59.22 L
308.895 59.261 L
309.161 59.272 L
309.45 59.243 L
309.739 59.215 L
310.005 59.199 L
310.271 59.192 L
310.56 59.195 L
310.849 59.208 L
311.115 59.229 L
311.381 59.257 L
311.67 59.297 L
311.959 59.302 L
312.225 59.27 L
312.491 59.24 L
312.78 59.218 L
313.069 59.207 L
313.335 59.206 L
313.601 59.213 L
313.89 59.231 L
314.179 59.259 L
314.445 59.293 L
314.711 59.334 L
315 59.387 L
315.289 61.566 L
315.555 63.531 L
315.821 65.496 L
316.11 67.646 L
316.399 69.807 L
316.665 71.799 L
316.931 73.762 L
317.22 75.858 L
317.509 77.957 L
317.775 79.894 L
318.041 81.803 L
318.33 83.843 L
318.619 85.887 L
318.885 87.774 L
319.151 89.635 L
319.44 91.624 L
319.729 93.574 L
319.995 95.334 L
320.261 97.1 L
320.55 99.039 L
320.839 100.95 L
321.105 102.675 L
321.371 104.371 L
321.66 106.184 L
321.949 107.964 L
322.215 109.572 L
322.481 111.152 L
322.77 112.844 L
323.059 114.507 L
323.325 116.01 L
323.591 117.489 L
323.88 119.073 L
324.169 120.632 L
324.435 122.041 L
324.701 123.43 L
324.99 124.919 L
325.279 126.385 L
325.545 127.712 L
325.811 129.02 L
326.1 130.424 L
326.389 131.808 L
326.655 133.062 L
326.921 134.299 L
327.21 135.628 L
327.499 136.939 L
327.765 138.128 L
328.031 139.302 L
328.32 140.565 L
328.609 141.811 L
328.875 142.943 L
329.141 144.061 L
329.43 145.264 L
329.719 146.454 L
329.985 147.534 L
330.251 148.602 L
330.54 149.753 L
330.829 150.892 L
331.095 151.927 L
331.361 152.951 L
331.65 154.056 L
331.939 155.149 L
332.205 156.144 L
332.471 157.13 L
332.76 158.193 L
333.049 159.247 L
333.315 160.206 L
333.581 161.157 L
333.87 162.184 L
334.159 163.202 L
334.425 164.13 L
334.691 165.05 L
334.98 166.045 L
335.269 167.032 L
335.535 167.931 L
335.801 168.825 L
336.09 169.791 L
336.379 170.75 L
336.645 171.625 L
336.911 172.494 L
337.2 173.434 L
337.489 174.369 L
337.755 175.221 L
338.021 176.069 L
338.31 176.987 L
338.599 177.899 L
338.865 178.732 L
339.131 179.561 L
339.42 180.459 L
339.709 181.352 L
339.975 182.168 L
340.241 182.98 L
340.53 183.86 L
340.819 184.735 L
341.085 185.535 L
341.351 186.332 L
341.64 187.196 L
341.929 188.056 L
342.195 188.843 L
342.461 189.626 L
342.75 190.476 L
343.039 191.322 L
343.305 192.097 L
343.571 192.868 L
343.86 193.705 L
344.149 194.539 L
344.415 195.303 L
344.681 196.063 L
344.97 196.889 L
345.259 197.712 L
345.525 198.465 L
345.791 199.217 L
346.08 200.032 L
346.369 200.845 L
346.635 201.59 L
346.901 202.332 L
347.19 203.139 L
347.479 203.943 L
347.745 204.679 L
348.011 205.414 L
348.3 206.212 L
348.589 204.847 L
348.855 203.591 L
349.121 202.334 L
349.41 200.964 L
349.699 199.593 L
349.965 198.332 L
350.231 197.07 L
350.52 195.694 L
350.809 194.317 L
351.075 193.051 L
351.341 191.785 L
351.63 190.404 L
351.919 189.022 L
352.185 187.753 L
352.451 186.482 L
352.74 185.098 L
353.029 183.712 L
353.295 182.439 L
353.561 181.165 L
353.85 179.777 L
354.139 178.388 L
354.405 177.111 L
354.671 175.835 L
354.96 174.443 L
355.249 173.052 L
355.515 171.773 L
355.781 170.494 L
356.07 169.1 L
356.359 167.706 L
356.625 166.425 L
356.891 165.144 L
357.18 163.748 L
357.469 162.352 L
357.735 161.07 L
358.001 159.787 L
358.29 158.39 L
358.579 156.992 L
358.845 155.709 L
359.111 154.425 L
359.4 153.026 L
359.689 151.628 L
359.955 150.343 L
360.221 149.058 L
360.51 147.659 L
360.799 146.259 L
361.065 144.974 L
361.331 143.689 L
361.62 142.289 L
361.909 140.889 L
362.175 139.603 L
362.441 138.318 L
362.73 136.917 L
363.019 135.517 L
363.285 134.231 L
363.551 132.946 L
363.84 131.545 L
364.129 130.145 L
364.395 128.859 L
364.661 127.574 L
364.95 126.174 L
365.239 124.774 L
365.505 123.488 L
365.771 122.203 L
366.06 120.803 L
366.349 119.404 L
366.615 118.119 L
366.881 116.834 L
367.17 115.435 L
367.459 114.036 L
367.725 112.752 L
367.991 111.468 L
368.28 110.07 L
368.569 108.672 L
368.835 107.388 L
369.101 106.143 L
369.39 104.837 L
369.679 103.581 L
369.945 102.47 L
370.211 101.399 L
370.5 100.279 L
370.789 99.203 L
371.055 98.253 L
371.321 97.338 L
371.61 96.382 L
371.899 95.423 L
372.165 94.531 L
372.431 93.665 L
372.72 92.761 L
373.009 91.894 L
373.275 91.13 L
373.541 90.397 L
373.83 89.632 L
374.119 88.902 L
374.385 88.259 L
374.651 87.643 L
374.94 87.003 L
375.229 86.392 L
375.495 85.856 L
375.761 85.345 L
376.05 84.814 L
376.339 84.266 L
376.605 83.741 L
376.871 83.232 L
377.16 82.703 L
377.449 82.201 L
377.715 81.761 L
377.981 81.343 L
378.27 80.911 L
378.559 80.502 L
378.825 80.146 L
379.091 79.808 L
379.38 79.462 L
379.669 79.091 L
379.935 78.724 L
380.201 78.368 L
380.49 78.002 L
380.779 77.656 L
381.045 77.356 L
381.311 77.073 L
381.6 76.783 L
381.889 76.512 L
382.155 76.279 L
382.421 76.023 L
382.71 75.71 L
382.999 75.408 L
383.265 75.146 L
383.531 74.899 L
383.82 74.648 L
384.109 74.414 L
384.375 74.214 L
384.641 74.027 L
384.93 73.839 L
385.219 73.621 L
385.485 73.391 L
385.751 73.167 L
386.04 72.939 L
386.329 72.728 L
386.595 72.547 L
386.861 72.379 L
387.15 72.211 L
387.439 72.058 L
387.705 71.928 L
387.971 71.81 L
388.26 71.695 L
388.549 71.548 L
388.815 71.38 L
389.081 71.216 L
389.37 71.052 L
389.659 70.901 L
389.925 70.775 L
390.191 70.66 L
390.48 70.547 L
390.769 70.446 L
391.035 70.364 L
391.301 70.255 L
391.59 70.096 L
391.879 69.942 L
392.145 69.812 L
392.411 69.692 L
392.7 69.575 L
392.989 69.47 L
393.255 69.384 L
393.521 69.308 L
393.81 69.236 L
394.099 69.175 L
394.365 69.128 L
394.631 69.052 L
394.92 68.929 L
395.209 68.809 L
395.475 68.709 L
395.741 68.619 L
396.03 68.532 L
396.319 68.457 L
396.585 68.397 L
396.851 68.345 L
397.14 68.3 L
397.429 68.264 L
397.695 68.239 L
397.961 68.185 L
398.25 68.084 L
398.539 67.986 L
398.805 67.905 L
399.071 67.833 L
399.36 67.766 L
399.649 67.709 L
399.915 67.665 L
400.181 67.629 L
400.47 67.6 L
400.759 67.58 L
401.025 67.569 L
401.291 67.527 L
401.58 67.44 L
401.869 67.355 L
402.135 67.286 L
402.401 67.225 L
402.69 67.169 L
402.979 67.123 L
403.245 67.089 L
403.511 67.062 L
403.8 67.043 L
404.089 67.032 L
404.355 67.029 L
404.621 67.032 L
404.91 67.044 L
405.199 67.02 L
405.465 66.96 L
405.731 66.9 L
406.02 66.845 L
406.309 66.8 L
406.575 66.766 L
406.841 66.74 L
407.13 66.72 L
407.419 66.709 L
407.685 66.706 L
407.951 66.709 L
408.24 66.721 L
408.529 66.695 L
408.795 66.634 L
409.061 66.574 L
409.35 66.518 L
409.639 66.472 L
409.905 66.437 L
410.171 66.409 L
410.46 66.388 L
410.749 66.376 L
411.015 66.371 L
411.281 66.373 L
411.57 66.383 L
411.859 66.4 L
412.125 66.422 L
412.391 66.412 L
412.68 66.358 L
412.969 66.304 L
413.235 66.262 L
413.501 66.228 L
413.79 66.199 L
414.079 66.179 L
414.345 66.168 L
414.611 66.164 L
414.9 66.166 L
415.189 66.177 L
415.455 66.192 L
415.721 66.214 L
416.01 66.244 L
416.299 66.237 L
416.565 66.192 L
416.831 66.147 L
417.12 66.106 L
417.409 66.075 L
417.675 66.053 L
417.941 66.038 L
418.23 66.03 L
418.519 66.03 L
418.785 66.036 L
419.051 66.048 L
419.34 66.068 L
419.629 66.095 L
419.895 66.126 L
420.161 66.162 L
420.45 66.208 L
420.739 66.214 L
421.005 66.182 L
421.271 66.15 L
421.56 66.122 L
421.849 66.103 L
422.115 66.092 L
422.381 66.087 L
422.67 66.09 L
422.959 66.1 L
423.225 66.115 L
423.491 66.136 L
423.78 66.166 L
424.069 66.202 L
424.335 66.24 L
424.601 66.246 L
424.89 66.208 L
425.179 66.169 L
425.445 66.14 L
425.711 66.119 L
426 66.103 L
426.289 66.095 L
426.555 66.094 L
426.821 66.1 L
427.11 66.113 L
427.399 66.133 L
427.665 66.157 L
427.931 66.186 L
428.22 66.224 L
428.509 66.224 L
428.775 66.185 L
429.041 66.146 L
429.33 66.111 L
429.619 66.084 L
429.885 66.067 L
430.151 66.056 L
430.44 66.052 L
430.729 66.055 L
430.995 66.064 L
431.261 66.079 L
431.55 66.101 L
431.839 66.13 L
432.105 66.163 L
432.371 66.2 L
432.66 66.246 L
432.949 66.254 L
433.215 66.222 L
433.481 66.19 L
433.77 66.162 L
434.059 66.142 L
434.325 66.131 L
434.591 66.126 L
434.88 66.127 L
435.169 66.136 L
435.435 66.15 L
435.701 66.169 L
435.99 66.197 L
436.279 66.231 L
436.545 66.267 L
436.811 66.308 L
437.1 66.359 L
437.389 66.37 L
437.655 66.342 L
437.921 66.313 L
438.21 66.288 L
438.499 66.271 L
438.765 66.263 L
439.031 66.26 L
439.32 66.264 L
439.609 66.276 L
439.875 66.292 L
440.141 66.313 L
440.43 66.343 L
440.719 66.379 L
440.985 66.417 L
441.251 66.459 L
441.54 66.511 L
441.829 66.524 L
442.095 66.497 L
442.361 66.469 L
442.65 66.445 L
442.939 66.43 L
443.205 66.422 L
443.471 66.42 L
443.76 66.425 L
444.049 66.437 L
444.315 66.453 L
444.581 66.475 L
444.87 66.505 L
445.159 66.541 L
445.425 66.579 L
445.691 66.584 L
445.98 66.545 L
446.269 66.505 L
446.535 66.475 L
446.801 66.451 L
447.09 66.434 L
447.379 66.423 L
447.645 66.42 L
447.911 66.422 L
448.2 66.432 L
448.489 66.448 L
448.755 66.468 L
449.021 66.494 L
449.31 66.528 L
449.599 66.568 L
449.865 66.609 L
450.131 66.655 L
450.42 66.71 L
450.709 66.726 L
450.975 66.702 L
451.241 66.676 L
451.53 66.655 L
451.819 66.641 L
452.085 66.635 L
452.351 66.635 L
452.64 66.642 L
452.929 66.655 L
453.195 66.673 L
453.461 66.696 L
453.75 66.727 L
454.039 66.764 L
454.305 66.803 L
454.571 66.809 L
454.86 66.77 L
455.149 66.731 L
455.415 66.701 L
455.681 66.677 L
455.97 66.66 L
456.259 66.649 L
456.525 66.646 L
456.791 66.648 L
457.08 66.657 L
457.369 66.673 L
457.635 66.693 L
457.901 66.718 L
458.19 66.751 L
458.479 66.79 L
458.745 66.83 L
459.011 66.875 L
459.3 66.93 L
459.589 66.945 L
459.855 66.919 L
460.121 66.892 L
460.41 66.87 L
460.699 66.855 L
460.965 66.848 L
461.231 66.846 L
461.52 66.851 L
461.809 66.863 L
462.075 66.88 L
462.341 66.901 L
462.63 66.93 L
462.919 66.966 L
463.185 67.003 L
463.451 67.045 L
463.74 67.096 L
464.029 67.107 L
464.295 67.078 L
464.561 67.048 L
464.85 67.022 L
465.139 67.005 L
465.405 66.994 L
465.671 66.99 L
465.96 66.992 L
466.249 67.001 L
466.515 67.014 L
466.781 67.033 L
467.07 67.059 L
467.359 67.092 L
467.625 67.126 L
467.891 67.166 L
468.18 67.214 L
468.469 67.222 L
468.735 67.191 L
469.001 67.158 L
469.29 67.13 L
469.579 67.11 L
469.845 67.097 L
470.111 67.09 L
470.4 67.09 L
470.689 67.096 L
470.955 67.108 L
471.221 67.124 L
471.51 67.148 L
471.799 67.178 L
472.065 67.211 L
472.331 67.248 L
472.62 67.294 L
472.909 67.3 L
473.175 67.267 L
473.441 67.232 L
473.73 67.202 L
474.019 67.179 L
474.285 67.165 L
474.551 67.156 L
474.84 67.154 L
475.129 67.158 L
475.395 67.167 L
475.661 67.182 L
475.95 67.204 L
476.239 67.232 L
476.505 67.263 L
476.771 67.298 L
477.06 67.342 L
477.349 67.391 L
477.615 67.441 L
477.881 67.457 L
478.17 67.429 L
478.459 67.398 L
478.725 67.377 L
478.991 67.362 L
479.28 67.352 L
479.569 67.35 L
479.835 67.353 L
480.101 67.362 L
480.39 67.378 L
480.679 67.399 L
480.945 67.424 L
481.211 67.454 L
481.5 67.492 L
481.789 67.536 L
482.055 67.58 L
482.321 67.591 L
482.61 67.557 L
482.899 67.522 L
483.165 67.496 L
483.431 67.476 L
483.72 67.462 L
484.009 67.455 L
484.275 67.454 L
484.541 67.458 L
484.83 67.469 L
485.119 67.487 L
485.385 67.508 L
485.651 67.534 L
485.94 67.568 L
486.229 67.607 L
486.495 67.648 L
486.761 67.655 L
487.05 67.618 L
487.339 67.579 L
487.605 67.55 L
487.871 67.527 L
488.16 67.509 L
488.449 67.498 L
488.715 67.494 L
488.981 67.495 L
489.27 67.504 L
489.559 67.518 L
489.825 67.536 L
490.091 67.559 L
490.38 67.59 L
490.669 67.627 L
490.935 67.665 L
491.201 67.707 L
491.49 67.759 L
491.779 67.77 L
492.045 67.741 L
492.311 67.711 L
492.6 67.685 L
492.889 67.666 L
493.155 67.655 L
493.421 67.649 L
493.71 67.65 L
493.999 67.657 L
494.265 67.669 L
494.531 67.686 L
494.82 67.71 L
495.109 67.74 L
495.375 67.772 L
495.641 67.809 L
495.93 67.854 L
496.219 67.859 L
496.485 67.825 L
496.751 67.79 L
497.04 67.758 L
497.329 67.734 L
497.595 67.718 L
497.861 67.707 L
498.15 67.703 L
498.439 67.705 L
498.705 67.713 L
498.971 67.725 L
499.26 67.745 L
499.549 67.77 L
499.815 67.799 L
500.081 67.831 L
500.37 67.872 L
500.659 67.918 L
500.925 67.965 L
501.191 67.978 L
501.48 67.946 L
501.769 67.913 L
502.035 67.888 L
502.301 67.87 L
502.59 67.856 L
502.879 67.85 L
503.145 67.85 L
503.411 67.855 L
503.7 67.867 L
503.989 67.884 L
504.255 67.906 L
504.521 67.932 L
504.81 67.965 L
505.099 68.004 L
505.365 68.045 L
505.631 68.089 L
505.92 68.142 L
506.209 68.156 L
506.475 68.128 L
506.741 68.099 L
507.03 68.075 L
507.319 68.057 L
507.585 68.047 L
507.851 68.042 L
508.14 68.043 L
508.429 68.051 L
508.695 68.063 L
508.961 68.08 L
509.25 68.105 L
509.539 68.135 L
509.805 68.167 L
510.071 68.204 L
510.36 68.249 L
510.649 68.254 L
510.915 68.219 L
511.181 68.183 L
511.47 68.151 L
511.759 68.126 L
512.025 68.109 L
512.291 68.098 L
512.58 68.092 L
512.869 68.093 L
513.135 68.099 L
513.401 68.111 L
513.69 68.129 L
513.979 68.153 L
514.245 68.18 L
514.511 68.211 L
514.8 68.25 L
515.089 68.295 L
515.355 68.34 L
515.621 68.351 L
515.91 68.317 L
516.199 68.282 L
516.465 68.256 L
516.731 68.235 L
517.02 68.22 L
517.309 68.211 L
517.575 68.209 L
517.841 68.212 L
518.13 68.221 L
518.419 68.237 L
518.685 68.256 L
518.951 68.279 L
519.24 68.311 L
519.529 68.347 L
519.795 68.385 L
520.061 68.427 L
520.35 68.478 L
520.639 68.488 L
520.905 68.459 L
521.171 68.427 L
521.46 68.4 L
521.749 68.379 L
522.015 68.366 L
522.281 68.359 L
522.57 68.357 L
522.859 68.362 L
523.125 68.372 L
523.391 68.386 L
523.68 68.408 L
523.969 68.435 L
524.235 68.464 L
524.501 68.498 L
524.79 68.54 L
525.079 68.542 L
525.345 68.504 L
525.611 68.465 L
525.9 68.43 L
526.189 68.402 L
526.455 68.382 L
526.721 68.368 L
527.01 68.359 L
527.299 68.357 L
527.565 68.361 L
527.831 68.369 L
528.12 68.384 L
528.409 68.405 L
528.675 68.429 L
528.941 68.457 L
529.23 68.493 L
529.519 68.534 L
529.785 68.576 L
530.051 68.584 L
530.34 68.547 L
530.629 68.509 L
530.895 68.479 L
531.161 68.456 L
531.45 68.437 L
531.739 68.425 L
532.005 68.42 L
532.271 68.42 L
532.56 68.426 L
532.849 68.438 L
533.115 68.454 L
533.381 68.474 L
533.67 68.502 L
533.959 68.536 L
534.225 68.57 L
534.491 68.609 L
534.78 68.657 L
535.069 68.664 L
535.335 68.631 L
535.601 68.596 L
535.89 68.565 L
536.179 68.542 L
536.445 68.526 L
536.711 68.515 L
537 68.51 L
537.289 68.512 L
537.555 68.518 L
537.821 68.53 L
538.11 68.548 L
538.399 68.572 L
538.665 68.598 L
538.931 68.629 L
539.22 68.667 L
539.509 68.71 L
539.775 68.754 L
540.041 68.764 L
540.33 68.729 L
540.619 68.692 L
540.885 68.664 L
541.151 68.642 L
541.44 68.625 L
541.729 68.614 L
541.995 68.61 L
542.261 68.611 L
542.55 68.618 L
542.839 68.631 L
543.105 68.647 L
543.371 68.669 L
543.66 68.697 L
543.949 68.731 L
544.215 68.766 L
544.481 68.805 L
544.77 68.853 L
545.059 68.86 L
545.325 68.827 L
545.591 68.792 L
545.88 68.762 L
546.169 68.738 L
546.435 68.721 L
546.701 68.711 L
546.99 68.706 L
547.279 68.707 L
547.545 68.712 L
547.811 68.723 L
548.1 68.741 L
548.389 68.764 L
548.655 68.79 L
548.921 68.82 L
549.21 68.857 L
549.499 68.9 L
549.765 68.943 L
550.031 68.952 L
550.32 68.916 L
550.609 68.878 L
550.875 68.849 L
551.141 68.826 L
551.43 68.807 L
551.719 68.796 L
551.985 68.79 L
552.251 68.79 L
552.54 68.796 L
552.829 68.807 L
553.095 68.822 L
553.361 68.842 L
553.65 68.869 L
553.939 68.902 L
554.205 68.935 L
554.471 68.973 L
554.76 69.019 L
555.049 69.07 L
555.315 69.12 L
555.581 69.136 L
555.87 69.107 L
556.159 69.076 L
556.425 69.053 L
556.691 69.036 L
556.98 69.024 L
557.269 69.018 L
557.535 69.018 L
557.801 69.023 L
558.09 69.034 L
558.379 69.05 L
558.645 69.07 L
558.911 69.094 L
559.2 69.126 L
559.489 69.163 L
559.755 69.2 L
560.021 69.242 L
560.31 69.292 L
560.599 69.301 L
560.865 69.27 L
561.131 69.237 L
561.42 69.208 L
561.709 69.185 L
561.975 69.17 L
562.241 69.161 L
562.53 69.156 L
562.819 69.158 L
563.085 69.165 L
563.351 69.176 L
563.64 69.194 L
563.929 69.217 L
564.195 69.243 L
564.461 69.273 L
564.75 69.311 L
565.039 69.353 L
565.305 69.396 L
565.571 69.404 L
565.86 69.368 L
566.149 69.329 L
566.415 69.3 L
566.681 69.276 L
566.97 69.257 L
567.259 69.244 L
567.525 69.237 L
567.791 69.236 L
568.08 69.24 L
568.369 69.251 L
568.635 69.265 L
568.901 69.283 L
569.19 69.309 L
569.479 69.34 L
569.745 69.372 L
570.011 69.408 L
570.3 69.452 L
570.589 69.456 L
570.855 69.42 L
571.121 69.382 L
571.41 69.348 L
571.699 69.32 L
571.965 69.3 L
572.231 69.286 L
572.52 69.277 L
572.809 69.274 L
573.075 69.276 L
573.341 69.283 L
573.63 69.297 L
573.919 69.315 L
574.185 69.337 L
574.451 69.363 L
574.74 69.396 L
575.029 69.434 L
575.295 69.473 L
575.561 69.516 L
575.85 69.567 L
576.139 69.577 L
576.405 69.547 L
576.671 69.514 L
576.96 69.486 L
577.249 69.464 L
577.515 69.449 L
577.781 69.439 L
578.07 69.435 L
578.359 69.437 L
578.625 69.444 L
578.891 69.455 L
579.18 69.472 L
579.469 69.495 L
579.735 69.521 L
580.001 69.55 L
580.29 69.587 L
580.579 69.628 L
580.845 69.67 L
581.111 69.678 L
581.4 69.641 L
581.689 69.601 L
581.955 69.57 L
582.221 69.545 L
582.51 69.525 L
582.799 69.51 L
583.065 69.503 L
583.331 69.5 L
583.62 69.503 L
583.909 69.512 L
584.175 69.524 L
584.441 69.541 L
584.73 69.565 L
585.019 69.594 L
585.285 69.624 L
585.551 69.659 L
585.84 69.701 L
586.129 69.703 L
586.395 69.665 L
586.661 69.625 L
586.95 69.588 L
587.239 69.559 L
587.505 69.537 L
587.771 69.521 L
588.06 69.509 L
588.349 69.504 L
588.615 69.504 L
588.881 69.509 L
589.17 69.52 L
589.459 69.536 L
589.725 69.555 L
589.991 69.579 L
590.28 69.61 L
590.569 69.645 L
590.835 69.682 L
591.101 69.722 L
591.39 69.77 L
591.679 69.778 L
591.945 69.745 L
592.211 69.71 L
592.5 69.679 L
592.789 69.654 L
593.055 69.637 L
593.321 69.625 L
593.61 69.618 L
593.899 69.617 L
594.165 69.621 L
594.431 69.629 L
594.72 69.644 L
595.009 69.664 L
595.275 69.687 L
595.541 69.714 L
595.83 69.748 L
596.119 69.786 L
596.385 69.825 L
596.651 69.868 L
596.94 69.919 L
597.229 69.93 L
597.495 69.899 L
597.761 69.866 L
598.05 69.837 L
598.339 69.815 L
598.605 69.799 L
598.871 69.789 L
599.16 69.784 L
599.449 69.784 L
599.715 69.79 L
599.981 69.8 L
600.27 69.816 L
600.559 69.838 L
600.825 69.862 L
601.091 69.889 L
601.38 69.925 L
601.669 69.964 L
601.935 70.004 L
602.201 70.011 L
602.49 69.971 L
602.779 69.929 L
603.045 69.896 L
603.311 69.869 L
603.6 69.846 L
603.889 69.83 L
604.155 69.82 L
604.421 69.815 L
604.71 69.815 L
604.999 69.821 L
605.265 69.831 L
605.531 69.845 L
605.82 69.866 L
606.109 69.892 L
606.375 69.92 L
606.641 69.952 L
606.93 69.991 L
607.219 70.034 L
607.485 70.078 L
607.751 70.087 L
608.04 70.051 L
608.329 70.013 L
608.595 69.983 L
608.861 69.958 L
609.15 69.938 L
609.439 69.924 L
609.705 69.917 L
609.971 69.914 L
610.26 69.917 L
610.549 69.925 L
610.815 69.937 L
611.081 69.953 L
611.37 69.976 L
611.659 70.004 L
611.925 70.034 L
612.191 70.067 L
612.48 70.108 L
612.769 70.153 L
613.035 70.198 L
613.301 70.208 L
613.59 70.174 L
613.879 70.136 L
614.145 70.107 L
614.411 70.084 L
614.7 70.065 L
614.989 70.052 L
615.255 70.045 L
615.521 70.043 L
615.81 70.047 L
616.099 70.056 L
616.365 70.068 L
616.631 70.085 L
616.92 70.109 L
617.209 70.137 L
617.475 70.167 L
617.741 70.201 L
618.03 70.242 L
618.319 70.242 L
618.585 70.203 L
618.851 70.162 L
619.14 70.123 L
619.429 70.092 L
619.695 70.068 L
619.961 70.05 L
620.25 70.036 L
620.539 70.028 L
620.805 70.026 L
621.071 70.028 L
621.36 70.036 L
621.649 70.049 L
621.915 70.066 L
622.181 70.087 L
622.47 70.114 L
622.759 70.146 L
623.025 70.179 L
623.291 70.216 L
623.58 70.261 L
623.869 70.265 L
624.135 70.228 L
624.401 70.19 L
624.69 70.154 L
624.979 70.125 L
625.245 70.104 L
625.511 70.088 L
625.8 70.076 L
626.089 70.071 L
626.355 70.07 L
626.621 70.075 L
626.91 70.085 L
627.199 70.1 L
627.465 70.118 L
627.731 70.141 L
628.02 70.17 L
628.309 70.203 L
628.575 70.238 L
628.841 70.276 L
629.13 70.322 L
629.419 70.327 L
629.685 70.292 L
629.951 70.254 L
630.24 70.219 L
630.529 70.191 L
630.795 70.171 L
631.061 70.156 L
631.35 70.145 L
631.639 70.14 L
631.905 70.141 L
632.171 70.146 L
632.46 70.156 L
632.749 70.172 L
633.015 70.191 L
633.281 70.213 L
633.57 70.243 L
633.859 70.277 L
634.125 70.312 L
634.391 70.35 L
634.68 70.396 L
634.969 70.401 L
635.235 70.366 L
635.501 70.329 L
635.79 70.294 L
636.079 70.266 L
636.345 70.246 L
636.611 70.231 L
636.9 70.22 L
637.189 70.215 L
637.455 70.215 L
637.721 70.22 L
638.01 70.23 L
638.299 70.246 L
638.565 70.264 L
638.831 70.287 L
639.12 70.316 L
639.409 70.349 L
639.675 70.384 L
639.941 70.422 L
640.23 70.467 L
640.519 70.517 L
640.785 70.566 L
641.051 70.58 L
641.34 70.549 L
641.629 70.515 L
641.895 70.489 L
642.161 70.468 L
642.45 70.452 L
642.739 70.441 L
643.005 70.436 L
643.271 70.436 L
643.56 70.441 L
643.849 70.451 L
644.115 70.465 L
644.381 70.483 L
644.67 70.507 L
644.959 70.535 L
645.225 70.566 L
645.491 70.6 L
645.78 70.641 L
646.069 70.686 L
646.335 70.731 L
646.601 70.741 L
646.89 70.706 L
647.179 70.668 L
647.445 70.638 L
647.711 70.614 L
648 70.593 L
S
GR
GS
[0.75 0 0 0.75 0 -0.25] CT
0.929 0.694 0.125 RC
1 LJ
0.667 LW
N
205.875 348.038 M
205.931 347.796 L
206.22 346.535 L
206.509 345.275 L
206.775 344.118 L
207.041 342.962 L
207.33 341.703 L
207.619 340.445 L
207.885 339.29 L
208.151 338.136 L
208.44 336.879 L
208.729 335.622 L
208.995 334.469 L
209.261 333.317 L
209.55 332.062 L
209.839 330.807 L
210.105 329.656 L
210.371 328.505 L
210.66 327.252 L
210.949 325.999 L
211.215 324.85 L
211.481 323.701 L
211.77 322.45 L
212.059 321.199 L
212.325 320.051 L
212.591 318.904 L
212.88 317.655 L
213.169 316.406 L
213.435 315.26 L
213.701 314.115 L
213.99 312.868 L
214.279 311.621 L
214.545 310.477 L
214.811 309.333 L
215.1 308.088 L
215.389 306.843 L
215.655 305.701 L
215.921 304.559 L
216.21 303.315 L
216.499 302.073 L
216.765 300.932 L
217.031 299.792 L
217.32 298.55 L
217.609 297.31 L
217.875 296.171 L
218.141 295.032 L
218.43 293.793 L
218.719 292.554 L
218.985 291.417 L
219.251 290.28 L
219.54 289.043 L
219.829 287.806 L
220.095 286.671 L
220.361 285.536 L
220.65 284.3 L
220.939 283.065 L
221.205 281.932 L
221.471 280.799 L
221.76 279.565 L
222.049 278.332 L
222.315 277.2 L
222.581 276.069 L
222.87 274.837 L
223.159 273.606 L
223.425 272.476 L
223.691 271.347 L
223.98 270.117 L
224.269 268.888 L
224.535 267.76 L
224.801 266.632 L
225.09 265.404 L
225.379 264.177 L
225.645 263.051 L
225.911 261.925 L
226.2 260.699 L
226.489 259.473 L
226.755 258.349 L
227.021 257.225 L
227.31 256.001 L
227.599 254.777 L
227.865 253.654 L
228.131 252.532 L
228.42 251.31 L
228.709 250.088 L
228.975 248.967 L
229.241 247.846 L
229.53 246.626 L
229.819 245.407 L
230.085 244.287 L
230.351 243.168 L
230.64 241.95 L
230.929 240.733 L
231.195 239.615 L
231.461 238.498 L
231.75 237.281 L
232.039 236.066 L
232.305 234.95 L
232.571 233.834 L
232.86 232.62 L
233.149 231.406 L
233.415 230.292 L
233.681 229.178 L
233.97 227.966 L
234.259 226.754 L
234.525 225.641 L
234.791 224.529 L
235.08 223.319 L
235.369 222.109 L
235.635 220.998 L
235.901 219.888 L
236.19 218.679 L
236.479 217.471 L
236.745 216.364 L
237.011 215.259 L
237.3 214.058 L
237.589 212.861 L
237.855 211.765 L
238.121 210.673 L
238.41 209.489 L
238.699 208.311 L
238.965 207.235 L
239.231 206.164 L
239.52 205.005 L
239.809 203.854 L
240.075 202.804 L
240.341 201.76 L
240.63 200.633 L
240.919 199.514 L
241.185 198.495 L
241.451 197.484 L
241.74 196.392 L
242.029 195.311 L
242.295 194.327 L
242.561 193.352 L
242.85 192.3 L
243.139 191.26 L
243.405 190.315 L
243.671 189.379 L
243.96 188.37 L
244.249 187.374 L
244.515 186.469 L
244.781 185.574 L
245.07 184.612 L
245.359 183.661 L
245.625 182.799 L
245.891 181.947 L
246.18 181.031 L
246.469 180.127 L
246.735 179.308 L
247.001 178.5 L
247.29 177.632 L
247.579 176.776 L
247.845 176.002 L
248.111 175.237 L
248.4 174.417 L
248.689 173.61 L
248.955 172.878 L
249.221 172.155 L
249.51 171.379 L
249.799 170.615 L
250.065 169.922 L
250.331 169.239 L
250.62 168.506 L
250.909 167.785 L
251.175 167.132 L
251.441 166.489 L
251.73 165.798 L
252.019 165.117 L
252.285 164.5 L
252.551 163.892 L
252.84 163.239 L
253.129 162.597 L
253.395 162.015 L
253.661 161.442 L
253.95 160.826 L
254.239 160.219 L
254.505 159.67 L
254.771 159.127 L
255.06 158.545 L
255.349 157.972 L
255.615 157.454 L
255.881 156.943 L
256.17 156.395 L
256.459 155.856 L
256.725 155.367 L
256.991 154.886 L
257.28 154.368 L
257.569 153.859 L
257.835 153.398 L
258.101 152.943 L
258.39 152.456 L
258.679 151.977 L
258.945 151.543 L
259.211 151.117 L
259.5 150.658 L
259.789 150.207 L
260.055 149.798 L
260.321 149.395 L
260.61 148.962 L
260.899 148.537 L
261.165 148.152 L
261.431 147.773 L
261.72 147.365 L
262.009 146.964 L
262.275 146.6 L
262.541 146.241 L
262.83 145.856 L
263.119 145.477 L
263.385 145.133 L
263.651 144.796 L
263.94 144.434 L
264.229 144.078 L
264.495 143.755 L
264.761 143.436 L
265.05 143.094 L
265.339 142.757 L
265.605 142.452 L
265.871 142.152 L
266.16 141.829 L
266.449 141.513 L
266.715 141.226 L
266.981 140.944 L
267.27 140.642 L
267.559 140.343 L
267.825 140.072 L
268.091 139.806 L
268.38 139.519 L
268.669 139.238 L
268.935 138.983 L
269.201 138.732 L
269.49 138.464 L
269.779 138.2 L
270.045 137.961 L
270.311 137.724 L
270.6 137.471 L
270.889 137.221 L
271.155 136.995 L
271.421 136.772 L
271.71 136.533 L
271.999 136.298 L
272.265 136.086 L
272.531 135.878 L
272.82 135.653 L
273.109 135.432 L
273.375 135.232 L
273.641 135.034 L
273.93 134.822 L
274.219 134.613 L
274.485 134.424 L
274.751 134.238 L
275.04 134.038 L
275.329 133.84 L
275.595 133.66 L
275.861 133.483 L
276.15 133.293 L
276.439 133.105 L
276.705 132.935 L
276.971 132.768 L
277.26 132.588 L
277.549 132.412 L
277.815 132.252 L
278.081 132.093 L
278.37 131.923 L
278.659 131.754 L
278.925 131.602 L
279.191 131.451 L
279.48 131.29 L
279.769 131.131 L
280.035 130.988 L
280.301 130.847 L
280.59 130.694 L
280.879 130.544 L
281.145 130.407 L
281.411 130.272 L
281.7 130.127 L
281.989 129.984 L
282.255 129.855 L
282.521 129.728 L
282.81 129.591 L
283.099 129.458 L
283.365 129.337 L
283.631 129.219 L
283.92 129.091 L
284.209 128.965 L
284.475 128.851 L
284.741 128.738 L
285.03 128.617 L
285.319 128.498 L
285.585 128.39 L
285.851 128.284 L
286.14 128.169 L
286.429 128.056 L
286.695 127.952 L
286.961 127.85 L
287.25 127.74 L
287.539 127.632 L
287.805 127.534 L
288.071 127.437 L
288.36 127.333 L
288.649 127.232 L
288.915 127.141 L
289.181 127.051 L
289.47 126.953 L
289.759 126.858 L
290.025 126.77 L
290.291 126.684 L
290.58 126.591 L
290.869 126.5 L
291.135 126.418 L
291.401 126.337 L
291.69 126.25 L
291.979 126.165 L
292.245 126.088 L
292.511 126.011 L
292.8 125.928 L
293.089 125.846 L
293.355 125.772 L
293.621 125.698 L
293.91 125.62 L
294.199 125.543 L
294.465 125.473 L
294.731 125.405 L
295.02 125.331 L
295.309 125.257 L
295.575 125.19 L
295.841 125.123 L
296.13 125.052 L
296.419 124.981 L
296.685 124.917 L
296.951 124.855 L
297.24 124.787 L
297.529 124.721 L
297.795 124.661 L
298.061 124.601 L
298.35 124.536 L
298.639 124.471 L
298.905 124.412 L
299.171 124.354 L
299.46 124.292 L
299.749 124.231 L
300.015 124.176 L
300.281 124.121 L
300.57 124.062 L
300.859 124.003 L
301.125 123.949 L
301.391 123.895 L
301.68 123.838 L
301.969 123.781 L
302.235 123.729 L
302.501 123.678 L
302.79 123.623 L
303.079 123.57 L
303.345 123.522 L
303.611 123.475 L
303.9 123.424 L
304.189 123.373 L
304.455 123.326 L
304.721 123.28 L
305.01 123.231 L
305.299 123.182 L
305.565 123.138 L
305.831 123.094 L
306.12 123.048 L
306.409 123.003 L
306.675 122.961 L
306.941 122.919 L
307.23 122.874 L
307.519 122.829 L
307.785 122.788 L
308.051 122.747 L
308.34 122.704 L
308.629 122.661 L
308.895 122.623 L
309.161 122.585 L
309.45 122.544 L
309.739 122.502 L
310.005 122.464 L
310.271 122.426 L
310.56 122.385 L
310.849 122.344 L
311.115 122.307 L
311.381 122.271 L
311.67 122.232 L
311.959 122.194 L
312.225 122.158 L
312.491 122.123 L
312.78 122.084 L
313.069 122.045 L
313.335 122.01 L
313.601 121.974 L
313.89 121.937 L
314.179 121.899 L
314.445 121.866 L
314.711 121.833 L
315 121.798 L
315.289 124.53 L
315.555 127.026 L
315.821 129.509 L
316.11 132.199 L
316.399 134.875 L
316.665 137.32 L
316.931 139.752 L
317.22 142.388 L
317.509 145.008 L
317.775 147.403 L
318.041 149.786 L
318.33 152.367 L
318.619 154.933 L
318.885 157.278 L
319.151 159.611 L
319.44 162.138 L
319.729 164.651 L
319.995 166.945 L
320.261 169.227 L
320.55 171.698 L
320.839 174.154 L
321.105 176.398 L
321.371 178.629 L
321.66 181.044 L
321.949 183.444 L
322.215 185.635 L
322.481 187.812 L
322.77 190.168 L
323.059 192.507 L
323.325 194.642 L
323.591 196.763 L
323.88 199.057 L
324.169 201.334 L
324.435 203.411 L
324.701 205.474 L
324.99 207.704 L
325.279 209.917 L
325.545 211.935 L
325.811 213.939 L
326.1 216.105 L
326.389 218.254 L
326.655 220.212 L
326.921 222.157 L
327.21 224.257 L
327.499 226.341 L
327.765 228.241 L
328.031 230.125 L
328.32 232.161 L
328.609 234.181 L
328.875 236.021 L
329.141 237.847 L
329.43 239.819 L
329.719 241.774 L
329.985 243.556 L
330.251 245.323 L
330.54 247.232 L
330.829 249.125 L
331.095 250.849 L
331.361 252.559 L
331.65 254.406 L
331.939 256.237 L
332.205 257.905 L
332.471 259.559 L
332.76 261.345 L
333.049 263.116 L
333.315 264.729 L
333.581 266.329 L
333.87 268.056 L
334.159 269.769 L
334.425 271.328 L
334.691 272.875 L
334.98 274.545 L
335.269 276.201 L
335.535 277.709 L
335.801 279.204 L
336.09 280.819 L
336.379 282.42 L
336.645 283.878 L
336.911 285.324 L
337.2 286.885 L
337.489 288.433 L
337.755 289.843 L
338.021 291.241 L
338.31 292.751 L
338.599 294.248 L
338.865 295.611 L
339.131 296.964 L
339.42 298.424 L
339.709 299.872 L
339.975 301.191 L
340.241 302.499 L
340.53 303.912 L
340.819 305.313 L
341.085 306.589 L
341.351 307.855 L
341.64 309.223 L
341.929 310.579 L
342.195 311.814 L
342.461 313.039 L
342.75 314.363 L
343.039 315.676 L
343.305 316.872 L
343.571 318.059 L
343.86 319.341 L
344.149 320.613 L
344.415 321.772 L
344.681 322.922 L
344.97 324.164 L
345.259 325.397 L
345.525 326.52 L
345.791 327.635 L
346.08 328.839 L
346.369 330.034 L
346.635 331.124 L
346.901 332.205 L
347.19 333.373 L
347.479 334.533 L
347.745 335.59 L
348.011 336.639 L
348.3 337.773 L
348.589 336.132 L
348.855 334.63 L
349.121 333.134 L
349.41 331.51 L
349.699 329.893 L
349.965 328.413 L
350.231 326.939 L
350.52 325.339 L
350.809 323.744 L
351.075 322.285 L
351.341 320.831 L
351.63 319.252 L
351.919 317.679 L
352.185 316.238 L
352.451 314.803 L
352.74 313.244 L
353.029 311.69 L
353.295 310.268 L
353.561 308.849 L
353.85 307.309 L
354.139 305.774 L
354.405 304.368 L
354.671 302.965 L
354.96 301.442 L
355.249 299.924 L
355.515 298.533 L
355.781 297.146 L
356.07 295.639 L
356.359 294.136 L
356.625 292.759 L
356.891 291.386 L
357.18 289.894 L
357.469 288.406 L
357.735 287.043 L
358.001 285.682 L
358.29 284.204 L
358.579 282.73 L
358.845 281.379 L
359.111 280.031 L
359.4 278.566 L
359.689 277.104 L
359.955 275.765 L
360.221 274.428 L
360.51 272.975 L
360.799 271.526 L
361.065 270.197 L
361.331 268.871 L
361.62 267.429 L
361.909 265.991 L
362.175 264.672 L
362.441 263.356 L
362.73 261.925 L
363.019 260.497 L
363.285 259.188 L
363.551 257.881 L
363.84 256.461 L
364.129 255.042 L
364.395 253.742 L
364.661 252.444 L
364.95 251.033 L
365.239 249.624 L
365.505 248.332 L
365.771 247.042 L
366.06 245.64 L
366.349 244.239 L
366.615 242.955 L
366.881 241.673 L
367.17 240.279 L
367.459 238.887 L
367.725 237.61 L
367.991 236.336 L
368.28 234.949 L
368.569 233.565 L
368.835 232.295 L
369.101 231.028 L
369.39 229.651 L
369.679 228.277 L
369.945 227.019 L
370.211 225.766 L
370.5 224.406 L
370.789 223.052 L
371.055 221.815 L
371.321 220.584 L
371.61 219.25 L
371.899 217.924 L
372.165 216.712 L
372.431 215.507 L
372.72 214.201 L
373.009 212.904 L
373.275 211.721 L
373.541 210.544 L
373.83 209.273 L
374.119 208.01 L
374.385 206.86 L
374.651 205.718 L
374.94 204.485 L
375.229 203.262 L
375.495 202.149 L
375.761 201.045 L
376.05 199.854 L
376.339 198.674 L
376.605 197.6 L
376.871 196.534 L
377.16 195.385 L
377.449 194.246 L
377.715 193.209 L
377.981 192.183 L
378.27 191.076 L
378.559 189.98 L
378.825 188.985 L
379.091 187.999 L
379.38 186.937 L
379.669 185.887 L
379.935 184.932 L
380.201 183.987 L
380.49 182.967 L
380.779 181.959 L
381.045 181.043 L
381.311 180.137 L
381.6 179.16 L
381.889 178.196 L
382.155 177.32 L
382.421 176.454 L
382.71 175.52 L
382.999 174.598 L
383.265 173.759 L
383.531 172.93 L
383.82 172.036 L
384.109 171.154 L
384.375 170.353 L
384.641 169.561 L
384.93 168.709 L
385.219 167.868 L
385.485 167.103 L
385.751 166.347 L
386.04 165.533 L
386.329 164.729 L
386.595 163.999 L
386.861 163.277 L
387.15 162.501 L
387.439 161.734 L
387.705 161.039 L
387.971 160.352 L
388.26 159.614 L
388.549 158.886 L
388.815 158.225 L
389.081 157.572 L
389.37 156.868 L
389.659 156.174 L
389.925 155.543 L
390.191 154.921 L
390.48 154.251 L
390.769 153.591 L
391.035 152.993 L
391.301 152.402 L
391.59 151.766 L
391.879 151.137 L
392.145 150.567 L
392.411 150.003 L
392.7 149.397 L
392.989 148.799 L
393.255 148.256 L
393.521 147.72 L
393.81 147.145 L
394.099 146.577 L
394.365 146.063 L
394.631 145.556 L
394.92 145.009 L
395.209 144.47 L
395.475 143.981 L
395.741 143.497 L
396.03 142.978 L
396.319 142.465 L
396.585 142 L
396.851 141.541 L
397.14 141.048 L
397.429 140.562 L
397.695 140.122 L
397.961 139.688 L
398.25 139.221 L
398.539 138.76 L
398.805 138.342 L
399.071 137.928 L
399.36 137.484 L
399.649 137.045 L
399.915 136.648 L
400.181 136.256 L
400.47 135.834 L
400.759 135.419 L
401.025 135.044 L
401.291 134.673 L
401.58 134.274 L
401.869 133.881 L
402.135 133.523 L
402.401 133.17 L
402.69 132.79 L
402.979 132.416 L
403.245 132.076 L
403.511 131.741 L
403.8 131.382 L
404.089 131.027 L
404.355 130.707 L
404.621 130.391 L
404.91 130.052 L
405.199 129.718 L
405.465 129.415 L
405.731 129.115 L
406.02 128.793 L
406.309 128.475 L
406.575 128.187 L
406.841 127.902 L
407.13 127.597 L
407.419 127.295 L
407.685 127.023 L
407.951 126.754 L
408.24 126.466 L
408.529 126.182 L
408.795 125.924 L
409.061 125.669 L
409.35 125.394 L
409.639 125.123 L
409.905 124.878 L
410.171 124.635 L
410.46 124.374 L
410.749 124.117 L
411.015 123.884 L
411.281 123.654 L
411.57 123.408 L
411.859 123.166 L
412.125 122.947 L
412.391 122.731 L
412.68 122.498 L
412.969 122.268 L
413.235 122.06 L
413.501 121.853 L
413.79 121.631 L
414.079 121.413 L
414.345 121.214 L
414.611 121.019 L
414.9 120.809 L
415.189 120.602 L
415.455 120.415 L
415.721 120.231 L
416.01 120.034 L
416.299 119.839 L
416.565 119.663 L
416.831 119.488 L
417.12 119.3 L
417.409 119.115 L
417.675 118.946 L
417.941 118.78 L
418.23 118.601 L
418.519 118.424 L
418.785 118.265 L
419.051 118.108 L
419.34 117.939 L
419.629 117.773 L
419.895 117.624 L
420.161 117.476 L
420.45 117.319 L
420.739 117.164 L
421.005 117.023 L
421.271 116.884 L
421.56 116.734 L
421.849 116.586 L
422.115 116.452 L
422.381 116.319 L
422.67 116.177 L
422.959 116.037 L
423.225 115.91 L
423.491 115.785 L
423.78 115.651 L
424.069 115.52 L
424.335 115.401 L
424.601 115.284 L
424.89 115.158 L
425.179 115.034 L
425.445 114.92 L
425.711 114.808 L
426 114.687 L
426.289 114.568 L
426.555 114.46 L
426.821 114.354 L
427.11 114.239 L
427.399 114.127 L
427.665 114.025 L
427.931 113.925 L
428.22 113.818 L
428.509 113.713 L
428.775 113.617 L
429.041 113.522 L
429.33 113.419 L
429.619 113.317 L
429.885 113.225 L
430.151 113.133 L
430.44 113.035 L
430.729 112.937 L
430.995 112.85 L
431.261 112.763 L
431.55 112.67 L
431.839 112.579 L
432.105 112.497 L
432.371 112.416 L
432.66 112.33 L
432.949 112.245 L
433.215 112.168 L
433.481 112.091 L
433.77 112.008 L
434.059 111.926 L
434.325 111.851 L
434.591 111.777 L
434.88 111.698 L
435.169 111.62 L
435.435 111.549 L
435.701 111.479 L
435.99 111.404 L
436.279 111.331 L
436.545 111.265 L
436.811 111.2 L
437.1 111.132 L
437.389 111.064 L
437.655 111.002 L
437.921 110.941 L
438.21 110.874 L
438.499 110.808 L
438.765 110.749 L
439.031 110.689 L
439.32 110.626 L
439.609 110.563 L
439.875 110.506 L
440.141 110.45 L
440.43 110.39 L
440.719 110.332 L
440.985 110.279 L
441.251 110.227 L
441.54 110.173 L
441.829 110.119 L
442.095 110.07 L
442.361 110.021 L
442.65 109.967 L
442.939 109.915 L
443.205 109.867 L
443.471 109.819 L
443.76 109.768 L
444.049 109.717 L
444.315 109.672 L
444.581 109.627 L
444.87 109.579 L
445.159 109.532 L
445.425 109.49 L
445.691 109.448 L
445.98 109.403 L
446.269 109.357 L
446.535 109.316 L
446.801 109.274 L
447.09 109.229 L
447.379 109.184 L
447.645 109.144 L
447.911 109.103 L
448.2 109.06 L
448.489 109.017 L
448.755 108.979 L
449.021 108.941 L
449.31 108.901 L
449.599 108.861 L
449.865 108.826 L
450.131 108.792 L
450.42 108.755 L
450.709 108.72 L
450.975 108.687 L
451.241 108.654 L
451.53 108.619 L
451.819 108.583 L
452.085 108.551 L
452.351 108.519 L
452.64 108.484 L
452.929 108.45 L
453.195 108.419 L
453.461 108.389 L
453.75 108.357 L
454.039 108.325 L
454.305 108.297 L
454.571 108.269 L
454.86 108.239 L
455.149 108.208 L
455.415 108.179 L
455.681 108.151 L
455.97 108.12 L
456.259 108.089 L
456.525 108.06 L
456.791 108.032 L
457.08 108.002 L
457.369 107.972 L
457.635 107.945 L
457.901 107.919 L
458.19 107.891 L
458.479 107.864 L
458.745 107.839 L
459.011 107.816 L
459.3 107.791 L
459.589 107.767 L
459.855 107.744 L
460.121 107.722 L
460.41 107.697 L
460.699 107.672 L
460.965 107.649 L
461.231 107.626 L
461.52 107.602 L
461.809 107.578 L
462.075 107.556 L
462.341 107.534 L
462.63 107.511 L
462.919 107.489 L
463.185 107.469 L
463.451 107.45 L
463.74 107.43 L
464.029 107.41 L
464.295 107.392 L
464.561 107.373 L
464.85 107.352 L
465.139 107.332 L
465.405 107.312 L
465.671 107.293 L
465.96 107.272 L
466.249 107.252 L
466.515 107.233 L
466.781 107.215 L
467.07 107.195 L
467.359 107.176 L
467.625 107.16 L
467.891 107.143 L
468.18 107.126 L
468.469 107.109 L
468.735 107.094 L
469.001 107.077 L
469.29 107.06 L
469.579 107.041 L
469.845 107.025 L
470.111 107.008 L
470.4 106.989 L
470.689 106.971 L
470.955 106.955 L
471.221 106.938 L
471.51 106.921 L
471.799 106.904 L
472.065 106.889 L
472.331 106.875 L
472.62 106.859 L
472.909 106.844 L
473.175 106.83 L
473.441 106.816 L
473.73 106.8 L
474.019 106.783 L
474.285 106.768 L
474.551 106.752 L
474.84 106.735 L
475.129 106.719 L
475.395 106.703 L
475.661 106.688 L
475.95 106.672 L
476.239 106.657 L
476.505 106.643 L
476.771 106.629 L
477.06 106.615 L
477.349 106.602 L
477.615 106.59 L
477.881 106.579 L
478.17 106.566 L
478.459 106.553 L
478.725 106.541 L
478.991 106.528 L
479.28 106.514 L
479.569 106.5 L
479.835 106.487 L
480.101 106.475 L
480.39 106.461 L
480.679 106.448 L
480.945 106.436 L
481.211 106.424 L
481.5 106.412 L
481.789 106.401 L
482.055 106.391 L
482.321 106.381 L
482.61 106.37 L
482.899 106.358 L
483.165 106.347 L
483.431 106.335 L
483.72 106.323 L
484.009 106.31 L
484.275 106.298 L
484.541 106.286 L
484.83 106.273 L
485.119 106.261 L
485.385 106.25 L
485.651 106.239 L
485.94 106.227 L
486.229 106.216 L
486.495 106.206 L
486.761 106.197 L
487.05 106.186 L
487.339 106.175 L
487.605 106.164 L
487.871 106.153 L
488.16 106.14 L
488.449 106.127 L
488.715 106.116 L
488.981 106.104 L
489.27 106.091 L
489.559 106.078 L
489.825 106.067 L
490.091 106.056 L
490.38 106.044 L
490.669 106.033 L
490.935 106.023 L
491.201 106.014 L
491.49 106.004 L
491.779 105.995 L
492.045 105.986 L
492.311 105.977 L
492.6 105.966 L
492.889 105.955 L
493.155 105.945 L
493.421 105.935 L
493.71 105.923 L
493.999 105.912 L
494.265 105.902 L
494.531 105.891 L
494.82 105.881 L
495.109 105.87 L
495.375 105.861 L
495.641 105.853 L
495.93 105.844 L
496.219 105.835 L
496.485 105.826 L
496.751 105.817 L
497.04 105.807 L
497.329 105.796 L
497.595 105.786 L
497.861 105.775 L
498.15 105.764 L
498.439 105.752 L
498.705 105.742 L
498.971 105.732 L
499.26 105.721 L
499.549 105.71 L
499.815 105.7 L
500.081 105.691 L
500.37 105.682 L
500.659 105.673 L
500.925 105.665 L
501.191 105.658 L
501.48 105.649 L
501.769 105.64 L
502.035 105.631 L
502.301 105.622 L
502.59 105.612 L
502.879 105.602 L
503.145 105.592 L
503.411 105.583 L
503.7 105.572 L
503.989 105.562 L
504.255 105.553 L
504.521 105.545 L
504.81 105.535 L
505.099 105.527 L
505.365 105.519 L
505.631 105.512 L
505.92 105.505 L
506.209 105.499 L
506.475 105.492 L
506.741 105.485 L
507.03 105.477 L
507.319 105.468 L
507.585 105.46 L
507.851 105.452 L
508.14 105.443 L
508.429 105.434 L
508.695 105.426 L
508.961 105.418 L
509.25 105.41 L
509.539 105.402 L
509.805 105.395 L
510.071 105.388 L
510.36 105.381 L
510.649 105.375 L
510.915 105.368 L
511.181 105.361 L
511.47 105.352 L
511.759 105.344 L
512.025 105.335 L
512.291 105.327 L
512.58 105.317 L
512.869 105.307 L
513.135 105.299 L
513.401 105.29 L
513.69 105.281 L
513.979 105.272 L
514.245 105.264 L
514.511 105.256 L
514.8 105.248 L
515.089 105.241 L
515.355 105.234 L
515.621 105.228 L
515.91 105.221 L
516.199 105.213 L
516.465 105.206 L
516.731 105.198 L
517.02 105.189 L
517.309 105.18 L
517.575 105.171 L
517.841 105.163 L
518.13 105.154 L
518.419 105.145 L
518.685 105.136 L
518.951 105.129 L
519.24 105.12 L
519.529 105.112 L
519.795 105.106 L
520.061 105.099 L
520.35 105.093 L
520.639 105.087 L
520.905 105.081 L
521.171 105.074 L
521.46 105.067 L
521.749 105.059 L
522.015 105.051 L
522.281 105.043 L
522.57 105.035 L
522.859 105.026 L
523.125 105.018 L
523.391 105.011 L
523.68 105.003 L
523.969 104.995 L
524.235 104.988 L
524.501 104.981 L
524.79 104.974 L
525.079 104.968 L
525.345 104.961 L
525.611 104.954 L
525.9 104.945 L
526.189 104.936 L
526.455 104.928 L
526.721 104.919 L
527.01 104.909 L
527.299 104.899 L
527.565 104.89 L
527.831 104.881 L
528.12 104.872 L
528.409 104.862 L
528.675 104.854 L
528.941 104.846 L
529.23 104.837 L
529.519 104.829 L
529.785 104.823 L
530.051 104.816 L
530.34 104.808 L
530.629 104.8 L
530.895 104.791 L
531.161 104.783 L
531.45 104.773 L
531.739 104.763 L
532.005 104.754 L
532.271 104.745 L
532.56 104.735 L
532.849 104.725 L
533.115 104.716 L
533.381 104.707 L
533.67 104.698 L
533.959 104.689 L
534.225 104.681 L
534.491 104.674 L
534.78 104.667 L
535.069 104.659 L
535.335 104.652 L
535.601 104.645 L
535.89 104.636 L
536.179 104.627 L
536.445 104.618 L
536.711 104.609 L
537 104.599 L
537.289 104.589 L
537.555 104.58 L
537.821 104.571 L
538.11 104.562 L
538.399 104.552 L
538.665 104.544 L
538.931 104.536 L
539.22 104.528 L
539.509 104.521 L
539.775 104.514 L
540.041 104.508 L
540.33 104.5 L
540.619 104.492 L
540.885 104.485 L
541.151 104.476 L
541.44 104.467 L
541.729 104.458 L
541.995 104.449 L
542.261 104.44 L
542.55 104.431 L
542.839 104.421 L
543.105 104.413 L
543.371 104.404 L
543.66 104.396 L
543.949 104.387 L
544.215 104.38 L
544.481 104.373 L
544.77 104.366 L
545.059 104.36 L
545.325 104.353 L
545.591 104.346 L
545.88 104.338 L
546.169 104.329 L
546.435 104.321 L
546.701 104.312 L
546.99 104.303 L
547.279 104.293 L
547.545 104.285 L
547.811 104.276 L
548.1 104.267 L
548.389 104.258 L
548.655 104.25 L
548.921 104.243 L
549.21 104.235 L
549.499 104.228 L
549.765 104.222 L
550.031 104.216 L
550.32 104.209 L
550.609 104.201 L
550.875 104.193 L
551.141 104.185 L
551.43 104.176 L
551.719 104.167 L
551.985 104.159 L
552.251 104.15 L
552.54 104.141 L
552.829 104.131 L
553.095 104.123 L
553.361 104.115 L
553.65 104.106 L
553.939 104.098 L
554.205 104.091 L
554.471 104.084 L
554.76 104.077 L
555.049 104.071 L
555.315 104.066 L
555.581 104.061 L
555.87 104.055 L
556.159 104.049 L
556.425 104.043 L
556.691 104.036 L
556.98 104.029 L
557.269 104.022 L
557.535 104.015 L
557.801 104.008 L
558.09 104 L
558.379 103.993 L
558.645 103.986 L
558.911 103.98 L
559.2 103.973 L
559.489 103.967 L
559.755 103.962 L
560.021 103.957 L
560.31 103.952 L
560.599 103.947 L
560.865 103.943 L
561.131 103.938 L
561.42 103.932 L
561.709 103.925 L
561.975 103.919 L
562.241 103.912 L
562.53 103.905 L
562.819 103.897 L
563.085 103.891 L
563.351 103.884 L
563.64 103.877 L
563.929 103.87 L
564.195 103.864 L
564.461 103.858 L
564.75 103.852 L
565.039 103.847 L
565.305 103.843 L
565.571 103.838 L
565.86 103.833 L
566.149 103.827 L
566.415 103.821 L
566.681 103.815 L
566.97 103.808 L
567.259 103.8 L
567.525 103.793 L
567.791 103.786 L
568.08 103.778 L
568.369 103.77 L
568.635 103.763 L
568.901 103.756 L
569.19 103.749 L
569.479 103.742 L
569.745 103.736 L
570.011 103.731 L
570.3 103.725 L
570.589 103.72 L
570.855 103.714 L
571.121 103.708 L
571.41 103.701 L
571.699 103.693 L
571.965 103.686 L
572.231 103.678 L
572.52 103.669 L
572.809 103.661 L
573.075 103.653 L
573.341 103.645 L
573.63 103.636 L
573.919 103.628 L
574.185 103.62 L
574.451 103.613 L
574.74 103.606 L
575.029 103.599 L
575.295 103.593 L
575.561 103.587 L
575.85 103.582 L
576.139 103.577 L
576.405 103.572 L
576.671 103.566 L
576.96 103.559 L
577.249 103.552 L
577.515 103.545 L
577.781 103.538 L
578.07 103.53 L
578.359 103.523 L
578.625 103.515 L
578.891 103.508 L
579.18 103.501 L
579.469 103.493 L
579.735 103.487 L
580.001 103.481 L
580.29 103.474 L
580.579 103.469 L
580.845 103.464 L
581.111 103.459 L
581.4 103.453 L
581.689 103.447 L
581.955 103.441 L
582.221 103.434 L
582.51 103.426 L
582.799 103.418 L
583.065 103.41 L
583.331 103.403 L
583.62 103.395 L
583.909 103.386 L
584.175 103.379 L
584.441 103.371 L
584.73 103.364 L
585.019 103.356 L
585.285 103.35 L
585.551 103.344 L
585.84 103.337 L
586.129 103.331 L
586.395 103.325 L
586.661 103.319 L
586.95 103.311 L
587.239 103.302 L
587.505 103.294 L
587.771 103.286 L
588.06 103.277 L
588.349 103.267 L
588.615 103.259 L
588.881 103.25 L
589.17 103.241 L
589.459 103.232 L
589.725 103.223 L
589.991 103.215 L
590.28 103.207 L
590.569 103.199 L
590.835 103.193 L
591.101 103.186 L
591.39 103.18 L
591.679 103.174 L
591.945 103.168 L
592.211 103.161 L
592.5 103.153 L
592.789 103.145 L
593.055 103.138 L
593.321 103.13 L
593.61 103.121 L
593.899 103.112 L
594.165 103.104 L
594.431 103.096 L
594.72 103.087 L
595.009 103.078 L
595.275 103.071 L
595.541 103.064 L
595.83 103.056 L
596.119 103.049 L
596.385 103.043 L
596.651 103.038 L
596.94 103.032 L
597.229 103.027 L
597.495 103.022 L
597.761 103.016 L
598.05 103.009 L
598.339 103.002 L
598.605 102.996 L
598.871 102.988 L
599.16 102.981 L
599.449 102.973 L
599.715 102.966 L
599.981 102.958 L
600.27 102.951 L
600.559 102.943 L
600.825 102.937 L
601.091 102.931 L
601.38 102.924 L
601.669 102.918 L
601.935 102.913 L
602.201 102.909 L
602.49 102.903 L
602.779 102.896 L
603.045 102.889 L
603.311 102.882 L
603.6 102.874 L
603.889 102.866 L
604.155 102.858 L
604.421 102.85 L
604.71 102.842 L
604.999 102.833 L
605.265 102.825 L
605.531 102.817 L
605.82 102.809 L
606.109 102.801 L
606.375 102.794 L
606.641 102.788 L
606.93 102.781 L
607.219 102.775 L
607.485 102.77 L
607.751 102.765 L
608.04 102.759 L
608.329 102.752 L
608.595 102.745 L
608.861 102.739 L
609.15 102.731 L
609.439 102.722 L
609.705 102.715 L
609.971 102.707 L
610.26 102.699 L
610.549 102.69 L
610.815 102.682 L
611.081 102.675 L
611.37 102.667 L
611.659 102.66 L
611.925 102.653 L
612.191 102.647 L
612.48 102.64 L
612.769 102.635 L
613.035 102.63 L
613.301 102.625 L
613.59 102.62 L
613.879 102.614 L
614.145 102.608 L
614.411 102.601 L
614.7 102.594 L
614.989 102.586 L
615.255 102.579 L
615.521 102.572 L
615.81 102.564 L
616.099 102.556 L
616.365 102.549 L
616.631 102.542 L
616.92 102.534 L
617.209 102.527 L
617.475 102.521 L
617.741 102.516 L
618.03 102.51 L
618.319 102.504 L
618.585 102.498 L
618.851 102.492 L
619.14 102.484 L
619.429 102.476 L
619.695 102.469 L
619.961 102.461 L
620.25 102.452 L
620.539 102.442 L
620.805 102.434 L
621.071 102.425 L
621.36 102.416 L
621.649 102.407 L
621.915 102.399 L
622.181 102.391 L
622.47 102.383 L
622.759 102.375 L
623.025 102.368 L
623.291 102.361 L
623.58 102.355 L
623.869 102.349 L
624.135 102.342 L
624.401 102.335 L
624.69 102.327 L
624.979 102.319 L
625.245 102.311 L
625.511 102.302 L
625.8 102.293 L
626.089 102.283 L
626.355 102.275 L
626.621 102.266 L
626.91 102.257 L
627.199 102.247 L
627.465 102.239 L
627.731 102.231 L
628.02 102.223 L
628.309 102.215 L
628.575 102.208 L
628.841 102.201 L
629.13 102.195 L
629.419 102.189 L
629.685 102.182 L
629.951 102.176 L
630.24 102.168 L
630.529 102.159 L
630.795 102.151 L
631.061 102.143 L
631.35 102.134 L
631.639 102.124 L
631.905 102.116 L
632.171 102.107 L
632.46 102.098 L
632.749 102.089 L
633.015 102.081 L
633.281 102.073 L
633.57 102.065 L
633.859 102.057 L
634.125 102.05 L
634.391 102.044 L
634.68 102.038 L
634.969 102.032 L
635.235 102.026 L
635.501 102.019 L
635.79 102.011 L
636.079 102.003 L
636.345 101.995 L
636.611 101.987 L
636.9 101.978 L
637.189 101.969 L
637.455 101.961 L
637.721 101.952 L
638.01 101.943 L
638.299 101.934 L
638.565 101.926 L
638.831 101.919 L
639.12 101.911 L
639.409 101.903 L
639.675 101.896 L
639.941 101.89 L
640.23 101.884 L
640.519 101.879 L
640.785 101.874 L
641.051 101.87 L
641.34 101.865 L
641.629 101.859 L
641.895 101.854 L
642.161 101.848 L
642.45 101.841 L
642.739 101.834 L
643.005 101.827 L
643.271 101.821 L
643.56 101.813 L
643.849 101.806 L
644.115 101.8 L
644.381 101.794 L
644.67 101.787 L
644.959 101.781 L
645.225 101.775 L
645.491 101.77 L
645.78 101.765 L
646.069 101.761 L
646.335 101.757 L
646.601 101.754 L
646.89 101.75 L
647.179 101.745 L
647.445 101.74 L
647.711 101.734 L
648 101.728 L
S
GR
GS
[0.75 0 0 0.75 0 -0.25] CT
1 GC
N
639 337 M
639 243 L
530 243 L
530 337 L
cp
f
GR
GS
[0.75 0 0 0.75 432.75 193.25] CT
/Helvetica 12 F
GS
[1 0 0 1 0 0] CT
0 0 moveto 
1 -1 scale
(T) t 
GR
GR
GS
[0.75 0 0 0.75 438.75 197.75] CT
/Helvetica 9.6 F
GS
[1 0 0 1 0 0] CT
0 0 moveto 
1 -1 scale
(Heater) t 
GR
GR
GS
[0.75 0 0 0.75 0 -0.25] CT
0 0.447 0.741 RC
1 LJ
0.667 LW
N
534 256.07 M
574 256.07 L
S
GR
GS
[0.75 0 0 0.75 432.75 210.5] CT
/Helvetica 12 F
GS
[1 0 0 1 0 0] CT
0 0 moveto 
1 -1 scale
(T) t 
GR
GR
GS
[0.75 0 0 0.75 438.75 215] CT
/Helvetica 9.6 F
GS
[1 0 0 1 0 0] CT
0 0 moveto 
1 -1 scale
(Water) t 
GR
GR
GS
[0.75 0 0 0.75 0 -0.25] CT
0.851 0.325 0.098 RC
1 LJ
0.667 LW
N
534 278.69 M
574 278.69 L
S
GR
GS
[0.75 0 0 0.75 432.75 227] CT
/Helvetica 12 F
GS
[1 0 0 1 0 0] CT
0 0 moveto 
1 -1 scale
(T) t 
GR
GR
GS
[0.75 0 0 0.75 438.75 231.5] CT
/Helvetica 9.6 F
GS
[1 0 0 1 0 0] CT
0 0 moveto 
1 -1 scale
(Boiler) t 
GR
GR
GS
[0.75 0 0 0.75 0 -0.25] CT
0.929 0.694 0.125 RC
1 LJ
0.667 LW
N
534 301.31 M
574 301.31 L
S
GR
GS
[0.75 0 0 0.75 432.75 244.25] CT
/Helvetica 12 F
GS
[1 0 0 1 0 0] CT
0 0 moveto 
1 -1 scale
(T) t 
GR
GR
GS
[0.75 0 0 0.75 438.75 248.75] CT
/Helvetica 9.6 F
GS
[1 0 0 1 0 0] CT
0 0 moveto 
1 -1 scale
(GroupHead) t 
GR
GR
GS
[0.75 0 0 0.75 0 -0.25] CT
0.494 0.184 0.557 RC
1 LJ
0.667 LW
N
534 323.93 M
574 323.93 L
S
GR
GS
[0.75 0 0 0.75 0 -0.25] CT
0.149 GC
10.0 ML
0.667 LW
N
530 337 M
530 243 L
639 243 L
639 337 L
cp
S
GR
%%Trailer
%%Pages: 1
%%EOF
